<?xml version="1.0" encoding="UTF-8" standalone="no"?>
<!DOCTYPE svg PUBLIC "-//W3C//DTD SVG 1.1//EN"
 "http://www.w3.org/Graphics/SVG/1.1/DTD/svg11.dtd">
<!-- Generated by graphviz version 2.38.0 (20140413.2041)
 -->
<!-- Title: ReadBinds Pages: 1 -->
<svg width="174pt" height="28pt"
 viewBox="0.00 0.00 174.00 28.00" xmlns="http://www.w3.org/2000/svg" xmlns:xlink="http://www.w3.org/1999/xlink">
<g id="graph0" class="graph" transform="scale(1 1) rotate(0) translate(4 24)">
<title>ReadBinds</title>
<polygon fill="white" stroke="none" points="-4,4 -4,-24 170,-24 170,4 -4,4"/>
<!-- Node1 -->
<g id="node1" class="node"><title>Node1</title>
<polygon fill="#bfbfbf" stroke="black" points="0,-0.5 0,-19.5 65,-19.5 65,-0.5 0,-0.5"/>
<text text-anchor="middle" x="32.5" y="-7.5" font-family="Helvetica,sans-Serif" font-size="10.00">ReadBinds</text>
</g>
<!-- Node2 -->
<g id="node2" class="node"><title>Node2</title>
<g id="a_node2"><a xlink:href="_binds_8c.html#a466210d998ff9a9e64c34d08be8d3faa" target="_top" xlink:title="Writes the keybindings to the binds file, returns false if the bindings file cannot be opened for wri...">
<polygon fill="white" stroke="black" points="101,-0.5 101,-19.5 166,-19.5 166,-0.5 101,-0.5"/>
<text text-anchor="middle" x="133.5" y="-7.5" font-family="Helvetica,sans-Serif" font-size="10.00">WriteBinds</text>
</a>
</g>
</g>
<!-- Node1&#45;&gt;Node2 -->
<g id="edge1" class="edge"><title>Node1&#45;&gt;Node2</title>
<path fill="none" stroke="midnightblue" d="M65.0964,-10C73.223,-10 82.0936,-10 90.6515,-10"/>
<polygon fill="midnightblue" stroke="midnightblue" points="90.8642,-13.5001 100.864,-10 90.8642,-6.5001 90.8642,-13.5001"/>
</g>
</g>
</svg>
