<?xml version="1.0" encoding="UTF-8" standalone="no"?>
<!DOCTYPE svg PUBLIC "-//W3C//DTD SVG 1.1//EN"
 "http://www.w3.org/Graphics/SVG/1.1/DTD/svg11.dtd">
<!-- Generated by graphviz version 2.38.0 (20140413.2041)
 -->
<!-- Title: GraphicsInit Pages: 1 -->
<svg width="190pt" height="66pt"
 viewBox="0.00 0.00 190.00 66.00" xmlns="http://www.w3.org/2000/svg" xmlns:xlink="http://www.w3.org/1999/xlink">
<g id="graph0" class="graph" transform="scale(1 1) rotate(0) translate(4 62)">
<title>GraphicsInit</title>
<polygon fill="white" stroke="none" points="-4,4 -4,-62 186,-62 186,4 -4,4"/>
<!-- Node1 -->
<g id="node1" class="node"><title>Node1</title>
<polygon fill="#bfbfbf" stroke="black" points="0,-19.5 0,-38.5 69,-38.5 69,-19.5 0,-19.5"/>
<text text-anchor="middle" x="34.5" y="-26.5" font-family="Helvetica,sans-Serif" font-size="10.00">GraphicsInit</text>
</g>
<!-- Node2 -->
<g id="node2" class="node"><title>Node2</title>
<g id="a_node2"><a xlink:href="_draw_8c.html#ace8f7a9232a9cc421bbafd9a232612d7" target="_top" xlink:title="CreateShader">
<polygon fill="white" stroke="black" points="105,-38.5 105,-57.5 182,-57.5 182,-38.5 105,-38.5"/>
<text text-anchor="middle" x="143.5" y="-45.5" font-family="Helvetica,sans-Serif" font-size="10.00">CreateShader</text>
</a>
</g>
</g>
<!-- Node1&#45;&gt;Node2 -->
<g id="edge1" class="edge"><title>Node1&#45;&gt;Node2</title>
<path fill="none" stroke="midnightblue" d="M69.0619,-34.9596C77.2554,-36.4145 86.1769,-37.9987 94.8877,-39.5455"/>
<polygon fill="midnightblue" stroke="midnightblue" points="94.5024,-43.0317 104.96,-41.3341 95.7263,-36.1396 94.5024,-43.0317"/>
</g>
<!-- Node3 -->
<g id="node3" class="node"><title>Node3</title>
<g id="a_node3"><a xlink:href="_draw_8c.html#a09c94e5fd8b14a7e99005a6e160e6823" target="_top" xlink:title="Loads the image as a GL texture and returns its texture id. ">
<polygon fill="white" stroke="black" points="105,-0.5 105,-19.5 182,-19.5 182,-0.5 105,-0.5"/>
<text text-anchor="middle" x="143.5" y="-7.5" font-family="Helvetica,sans-Serif" font-size="10.00">R_LoadImage</text>
</a>
</g>
</g>
<!-- Node1&#45;&gt;Node3 -->
<g id="edge2" class="edge"><title>Node1&#45;&gt;Node3</title>
<path fill="none" stroke="midnightblue" d="M69.0619,-23.0404C77.2554,-21.5855 86.1769,-20.0013 94.8877,-18.4545"/>
<polygon fill="midnightblue" stroke="midnightblue" points="95.7263,-21.8604 104.96,-16.6659 94.5024,-14.9683 95.7263,-21.8604"/>
</g>
</g>
</svg>
