<?xml version="1.0" encoding="UTF-8" standalone="no"?>
<!DOCTYPE svg PUBLIC "-//W3C//DTD SVG 1.1//EN"
 "http://www.w3.org/Graphics/SVG/1.1/DTD/svg11.dtd">
<!-- Generated by graphviz version 2.38.0 (20140413.2041)
 -->
<!-- Title: Draw.h Pages: 1 -->
<svg width="623pt" height="196pt"
 viewBox="0.00 0.00 622.50 196.00" xmlns="http://www.w3.org/2000/svg" xmlns:xlink="http://www.w3.org/1999/xlink">
<g id="graph0" class="graph" transform="scale(1 1) rotate(0) translate(4 192)">
<title>Draw.h</title>
<polygon fill="white" stroke="none" points="-4,4 -4,-192 618.5,-192 618.5,4 -4,4"/>
<!-- Node1 -->
<g id="node1" class="node"><title>Node1</title>
<polygon fill="#bfbfbf" stroke="black" points="318,-168.5 318,-187.5 366,-187.5 366,-168.5 318,-168.5"/>
<text text-anchor="middle" x="342" y="-175.5" font-family="Helvetica,sans-Serif" font-size="10.00">Draw.h</text>
</g>
<!-- Node2 -->
<g id="node2" class="node"><title>Node2</title>
<g id="a_node2"><a xlink:href="_draw_8c.html" target="_top" xlink:title="Draw.c">
<polygon fill="white" stroke="black" points="0,-0.5 0,-19.5 48,-19.5 48,-0.5 0,-0.5"/>
<text text-anchor="middle" x="24" y="-7.5" font-family="Helvetica,sans-Serif" font-size="10.00">Draw.c</text>
</a>
</g>
</g>
<!-- Node1&#45;&gt;Node2 -->
<g id="edge1" class="edge"><title>Node1&#45;&gt;Node2</title>
<path fill="none" stroke="midnightblue" d="M307.896,-176.041C245.586,-172.325 113.554,-154.994 46,-76 31.7529,-59.3402 26.6207,-33.0498 24.8609,-19.5792"/>
<polygon fill="midnightblue" stroke="midnightblue" points="307.817,-179.542 317.984,-176.559 308.176,-172.551 307.817,-179.542"/>
</g>
<!-- Node3 -->
<g id="node3" class="node"><title>Node3</title>
<g id="a_node3"><a xlink:href="_world_8h.html" target="_top" xlink:title="World.h">
<polygon fill="white" stroke="black" points="195,-112.5 195,-131.5 245,-131.5 245,-112.5 195,-112.5"/>
<text text-anchor="middle" x="220" y="-119.5" font-family="Helvetica,sans-Serif" font-size="10.00">World.h</text>
</a>
</g>
</g>
<!-- Node1&#45;&gt;Node3 -->
<g id="edge2" class="edge"><title>Node1&#45;&gt;Node3</title>
<path fill="none" stroke="midnightblue" d="M313.461,-164.368C290.614,-154.255 259.195,-140.349 239.241,-131.516"/>
<polygon fill="midnightblue" stroke="midnightblue" points="312.108,-167.597 322.669,-168.444 314.941,-161.196 312.108,-167.597"/>
</g>
<!-- Node4 -->
<g id="node4" class="node"><title>Node4</title>
<g id="a_node4"><a xlink:href="_entity_8h.html" target="_top" xlink:title="Entity.h">
<polygon fill="white" stroke="black" points="78,-56.5 78,-75.5 128,-75.5 128,-56.5 78,-56.5"/>
<text text-anchor="middle" x="103" y="-63.5" font-family="Helvetica,sans-Serif" font-size="10.00">Entity.h</text>
</a>
</g>
</g>
<!-- Node1&#45;&gt;Node4 -->
<g id="edge13" class="edge"><title>Node1&#45;&gt;Node4</title>
<path fill="none" stroke="midnightblue" d="M308.018,-171.111C275.441,-164.578 225.519,-152.204 186,-132 156.015,-116.67 126.255,-89.7978 111.888,-75.8948"/>
<polygon fill="midnightblue" stroke="midnightblue" points="307.468,-174.569 317.951,-173.029 308.796,-167.696 307.468,-174.569"/>
</g>
<!-- Node6 -->
<g id="node6" class="node"><title>Node6</title>
<g id="a_node6"><a xlink:href="_main_8c.html" target="_top" xlink:title="Main.c">
<polygon fill="white" stroke="black" points="206,-0.5 206,-19.5 252,-19.5 252,-0.5 206,-0.5"/>
<text text-anchor="middle" x="229" y="-7.5" font-family="Helvetica,sans-Serif" font-size="10.00">Main.c</text>
</a>
</g>
</g>
<!-- Node1&#45;&gt;Node6 -->
<g id="edge15" class="edge"><title>Node1&#45;&gt;Node6</title>
<path fill="none" stroke="midnightblue" d="M367.507,-163.32C406.062,-140.901 471.51,-94.9385 440,-56 416.556,-27.0289 302.061,-15.907 252.237,-12.3905"/>
<polygon fill="midnightblue" stroke="midnightblue" points="365.341,-160.524 358.36,-168.493 368.787,-166.617 365.341,-160.524"/>
</g>
<!-- Node8 -->
<g id="node8" class="node"><title>Node8</title>
<g id="a_node8"><a xlink:href="_world_8c.html" target="_top" xlink:title="World.c">
<polygon fill="white" stroke="black" points="274,-56.5 274,-75.5 324,-75.5 324,-56.5 274,-56.5"/>
<text text-anchor="middle" x="299" y="-63.5" font-family="Helvetica,sans-Serif" font-size="10.00">World.c</text>
</a>
</g>
</g>
<!-- Node1&#45;&gt;Node8 -->
<g id="edge17" class="edge"><title>Node1&#45;&gt;Node8</title>
<path fill="none" stroke="midnightblue" d="M334.963,-158.998C325.581,-134.997 309.347,-93.4683 302.358,-75.5914"/>
<polygon fill="midnightblue" stroke="midnightblue" points="331.725,-160.329 338.626,-168.368 338.245,-157.78 331.725,-160.329"/>
</g>
<!-- Node10 -->
<g id="node10" class="node"><title>Node10</title>
<g id="a_node10"><a xlink:href="_world_graphics_8c.html" target="_top" xlink:title="WorldGraphics.c">
<polygon fill="white" stroke="black" points="342.5,-56.5 342.5,-75.5 431.5,-75.5 431.5,-56.5 342.5,-56.5"/>
<text text-anchor="middle" x="387" y="-63.5" font-family="Helvetica,sans-Serif" font-size="10.00">WorldGraphics.c</text>
</a>
</g>
</g>
<!-- Node1&#45;&gt;Node10 -->
<g id="edge18" class="edge"><title>Node1&#45;&gt;Node10</title>
<path fill="none" stroke="midnightblue" d="M349.364,-158.998C359.183,-134.997 376.172,-93.4683 383.485,-75.5914"/>
<polygon fill="midnightblue" stroke="midnightblue" points="346.078,-157.788 345.531,-168.368 352.557,-160.438 346.078,-157.788"/>
</g>
<!-- Node11 -->
<g id="node11" class="node"><title>Node11</title>
<g id="a_node11"><a xlink:href="_input_8c.html" target="_top" xlink:title="Input.c">
<polygon fill="white" stroke="black" points="488.5,-112.5 488.5,-131.5 535.5,-131.5 535.5,-112.5 488.5,-112.5"/>
<text text-anchor="middle" x="512" y="-119.5" font-family="Helvetica,sans-Serif" font-size="10.00">Input.c</text>
</a>
</g>
</g>
<!-- Node1&#45;&gt;Node11 -->
<g id="edge14" class="edge"><title>Node1&#45;&gt;Node11</title>
<path fill="none" stroke="midnightblue" d="M376.108,-166.166C409.359,-155.603 459.058,-139.817 488.236,-130.548"/>
<polygon fill="midnightblue" stroke="midnightblue" points="374.828,-162.9 366.357,-169.263 376.947,-169.571 374.828,-162.9"/>
</g>
<!-- Node12 -->
<g id="node12" class="node"><title>Node12</title>
<g id="a_node12"><a xlink:href="_settings_8c.html" target="_top" xlink:title="Settings.c">
<polygon fill="white" stroke="black" points="553.5,-112.5 553.5,-131.5 614.5,-131.5 614.5,-112.5 553.5,-112.5"/>
<text text-anchor="middle" x="584" y="-119.5" font-family="Helvetica,sans-Serif" font-size="10.00">Settings.c</text>
</a>
</g>
</g>
<!-- Node1&#45;&gt;Node12 -->
<g id="edge16" class="edge"><title>Node1&#45;&gt;Node12</title>
<path fill="none" stroke="midnightblue" d="M375.923,-169.574C416.247,-160.725 485.565,-145.445 545,-132 547.711,-131.387 550.527,-130.745 553.349,-130.1"/>
<polygon fill="midnightblue" stroke="midnightblue" points="375.095,-166.172 366.077,-171.733 376.594,-173.01 375.095,-166.172"/>
</g>
<!-- Node3&#45;&gt;Node2 -->
<g id="edge3" class="edge"><title>Node3&#45;&gt;Node2</title>
<path fill="none" stroke="midnightblue" d="M184.758,-117.243C152.126,-112.298 103.569,-101.069 69,-76 48.3336,-61.0126 33.9429,-33.4907 27.6181,-19.5603"/>
<polygon fill="midnightblue" stroke="midnightblue" points="184.368,-120.723 194.755,-118.638 185.335,-113.79 184.368,-120.723"/>
</g>
<!-- Node3&#45;&gt;Node4 -->
<g id="edge4" class="edge"><title>Node3&#45;&gt;Node4</title>
<path fill="none" stroke="midnightblue" d="M192.336,-108.232C170.451,-98.1312 140.503,-84.3091 121.452,-75.5164"/>
<polygon fill="midnightblue" stroke="midnightblue" points="190.915,-111.431 201.461,-112.444 193.848,-105.075 190.915,-111.431"/>
</g>
<!-- Node3&#45;&gt;Node6 -->
<g id="edge9" class="edge"><title>Node3&#45;&gt;Node6</title>
<path fill="none" stroke="midnightblue" d="M198.286,-106.005C182.882,-93.3734 166.355,-74.4576 175,-56 182.661,-39.644 199.512,-27.1593 212.367,-19.5364"/>
<polygon fill="midnightblue" stroke="midnightblue" points="196.492,-109.039 206.561,-112.333 200.744,-103.478 196.492,-109.039"/>
</g>
<!-- Node3&#45;&gt;Node8 -->
<g id="edge10" class="edge"><title>Node3&#45;&gt;Node8</title>
<path fill="none" stroke="midnightblue" d="M241.034,-106.622C255.466,-96.7574 274.141,-83.9919 286.339,-75.6545"/>
<polygon fill="midnightblue" stroke="midnightblue" points="238.973,-103.791 232.693,-112.324 242.923,-109.57 238.973,-103.791"/>
</g>
<!-- Node9 -->
<g id="node9" class="node"><title>Node9</title>
<g id="a_node9"><a xlink:href="_world_data_8c.html" target="_top" xlink:title="WorldData.c">
<polygon fill="white" stroke="black" points="184.5,-56.5 184.5,-75.5 255.5,-75.5 255.5,-56.5 184.5,-56.5"/>
<text text-anchor="middle" x="220" y="-63.5" font-family="Helvetica,sans-Serif" font-size="10.00">WorldData.c</text>
</a>
</g>
</g>
<!-- Node3&#45;&gt;Node9 -->
<g id="edge11" class="edge"><title>Node3&#45;&gt;Node9</title>
<path fill="none" stroke="midnightblue" d="M220,-101.805C220,-92.9102 220,-82.7798 220,-75.7511"/>
<polygon fill="midnightblue" stroke="midnightblue" points="216.5,-102.083 220,-112.083 223.5,-102.083 216.5,-102.083"/>
</g>
<!-- Node3&#45;&gt;Node10 -->
<g id="edge12" class="edge"><title>Node3&#45;&gt;Node10</title>
<path fill="none" stroke="midnightblue" d="M254.672,-109.789C286.12,-99.62 331.813,-84.8448 360.445,-75.5865"/>
<polygon fill="midnightblue" stroke="midnightblue" points="253.44,-106.509 245.002,-112.916 255.593,-113.169 253.44,-106.509"/>
</g>
<!-- Node4&#45;&gt;Node2 -->
<g id="edge5" class="edge"><title>Node4&#45;&gt;Node2</title>
<path fill="none" stroke="midnightblue" d="M81.9657,-50.6221C67.5339,-40.7574 48.8585,-27.9919 36.6612,-19.6545"/>
<polygon fill="midnightblue" stroke="midnightblue" points="80.0765,-53.5703 90.3073,-56.324 84.0267,-47.7914 80.0765,-53.5703"/>
</g>
<!-- Node5 -->
<g id="node5" class="node"><title>Node5</title>
<g id="a_node5"><a xlink:href="_entity_8c.html" target="_top" xlink:title="Entity.c">
<polygon fill="white" stroke="black" points="66,-0.5 66,-19.5 116,-19.5 116,-0.5 66,-0.5"/>
<text text-anchor="middle" x="91" y="-7.5" font-family="Helvetica,sans-Serif" font-size="10.00">Entity.c</text>
</a>
</g>
</g>
<!-- Node4&#45;&gt;Node5 -->
<g id="edge6" class="edge"><title>Node4&#45;&gt;Node5</title>
<path fill="none" stroke="midnightblue" d="M98.8001,-46.1005C96.8079,-37.1357 94.524,-26.8579 92.9447,-19.7511"/>
<polygon fill="midnightblue" stroke="midnightblue" points="95.4324,-47.0804 101.018,-56.083 102.266,-45.5618 95.4324,-47.0804"/>
</g>
<!-- Node4&#45;&gt;Node6 -->
<g id="edge7" class="edge"><title>Node4&#45;&gt;Node6</title>
<path fill="none" stroke="midnightblue" d="M132.16,-52.503C155.781,-42.3795 188.428,-28.388 209.128,-19.5164"/>
<polygon fill="midnightblue" stroke="midnightblue" points="130.778,-49.2873 122.965,-56.4435 133.535,-55.7213 130.778,-49.2873"/>
</g>
<!-- Node7 -->
<g id="node7" class="node"><title>Node7</title>
<g id="a_node7"><a xlink:href="_player_8c.html" target="_top" xlink:title="Player.c">
<polygon fill="white" stroke="black" points="134.5,-0.5 134.5,-19.5 187.5,-19.5 187.5,-0.5 134.5,-0.5"/>
<text text-anchor="middle" x="161" y="-7.5" font-family="Helvetica,sans-Serif" font-size="10.00">Player.c</text>
</a>
</g>
</g>
<!-- Node4&#45;&gt;Node7 -->
<g id="edge8" class="edge"><title>Node4&#45;&gt;Node7</title>
<path fill="none" stroke="midnightblue" d="M119.913,-49.2533C130.203,-39.6731 142.966,-27.7906 151.512,-19.8339"/>
<polygon fill="midnightblue" stroke="midnightblue" points="117.253,-46.9481 112.319,-56.324 122.023,-52.0714 117.253,-46.9481"/>
</g>
</g>
</svg>
