<?xml version="1.0" encoding="UTF-8" standalone="no"?>
<!DOCTYPE svg PUBLIC "-//W3C//DTD SVG 1.1//EN"
 "http://www.w3.org/Graphics/SVG/1.1/DTD/svg11.dtd">
<!-- Generated by graphviz version 2.38.0 (20140413.2041)
 -->
<!-- Title: V2Dot Pages: 1 -->
<svg width="270pt" height="104pt"
 viewBox="0.00 0.00 270.00 104.00" xmlns="http://www.w3.org/2000/svg" xmlns:xlink="http://www.w3.org/1999/xlink">
<g id="graph0" class="graph" transform="scale(1 1) rotate(0) translate(4 100)">
<title>V2Dot</title>
<polygon fill="white" stroke="none" points="-4,4 -4,-100 266,-100 266,4 -4,4"/>
<!-- Node1 -->
<g id="node1" class="node"><title>Node1</title>
<polygon fill="#bfbfbf" stroke="black" points="0,-38.5 0,-57.5 44,-57.5 44,-38.5 0,-38.5"/>
<text text-anchor="middle" x="22" y="-45.5" font-family="Helvetica,sans-Serif" font-size="10.00">V2Dot</text>
</g>
<!-- Node2 -->
<g id="node2" class="node"><title>Node2</title>
<g id="a_node2"><a xlink:href="_entity_8c.html#aa2c64671c1b363bbe6c2fed92d8b6724" target="_top" xlink:title="GeneralPhysicsPass">
<polygon fill="white" stroke="black" points="80,-76.5 80,-95.5 188,-95.5 188,-76.5 80,-76.5"/>
<text text-anchor="middle" x="134" y="-83.5" font-family="Helvetica,sans-Serif" font-size="10.00">GeneralPhysicsPass</text>
</a>
</g>
</g>
<!-- Node1&#45;&gt;Node2 -->
<g id="edge1" class="edge"><title>Node1&#45;&gt;Node2</title>
<path fill="none" stroke="midnightblue" d="M53.7414,-58.6198C69.8808,-64.1952 89.5054,-70.9746 105.189,-76.3926"/>
<polygon fill="midnightblue" stroke="midnightblue" points="54.8039,-55.2839 44.2091,-55.3268 52.5182,-61.9002 54.8039,-55.2839"/>
</g>
<!-- Node3 -->
<g id="node3" class="node"><title>Node3</title>
<g id="a_node3"><a xlink:href="_matrix_8h.html#abcc4a787ddf9e9ce86f3cef4f3414f09" target="_top" xlink:title="V3HomogeneousV4">
<polygon fill="white" stroke="black" points="82,-38.5 82,-57.5 186,-57.5 186,-38.5 82,-38.5"/>
<text text-anchor="middle" x="134" y="-45.5" font-family="Helvetica,sans-Serif" font-size="10.00">V3HomogeneousV4</text>
</a>
</g>
</g>
<!-- Node1&#45;&gt;Node3 -->
<g id="edge2" class="edge"><title>Node1&#45;&gt;Node3</title>
<path fill="none" stroke="midnightblue" d="M54.4336,-48C62.9633,-48 72.4255,-48 81.7438,-48"/>
<polygon fill="midnightblue" stroke="midnightblue" points="54.2091,-44.5001 44.2091,-48 54.2091,-51.5001 54.2091,-44.5001"/>
</g>
<!-- Node4 -->
<g id="node4" class="node"><title>Node4</title>
<g id="a_node4"><a xlink:href="_player_8c.html#af408561436e08aa5a5048e55e86de0dc" target="_top" xlink:title="ProcessPlayer">
<polygon fill="white" stroke="black" points="94,-0.5 94,-19.5 174,-19.5 174,-0.5 94,-0.5"/>
<text text-anchor="middle" x="134" y="-7.5" font-family="Helvetica,sans-Serif" font-size="10.00">ProcessPlayer</text>
</a>
</g>
</g>
<!-- Node1&#45;&gt;Node4 -->
<g id="edge3" class="edge"><title>Node1&#45;&gt;Node4</title>
<path fill="none" stroke="midnightblue" d="M53.7414,-37.3802C69.8808,-31.8048 89.5054,-25.0254 105.189,-19.6074"/>
<polygon fill="midnightblue" stroke="midnightblue" points="52.5182,-34.0998 44.2091,-40.6732 54.8039,-40.7161 52.5182,-34.0998"/>
</g>
<!-- Node5 -->
<g id="node5" class="node"><title>Node5</title>
<g id="a_node5"><a xlink:href="_main_8c.html#a3c04138a5bfe5d72780bb7e82a18e627" target="_top" xlink:title="main">
<polygon fill="white" stroke="black" points="224,-0.5 224,-19.5 262,-19.5 262,-0.5 224,-0.5"/>
<text text-anchor="middle" x="243" y="-7.5" font-family="Helvetica,sans-Serif" font-size="10.00">main</text>
</a>
</g>
</g>
<!-- Node4&#45;&gt;Node5 -->
<g id="edge4" class="edge"><title>Node4&#45;&gt;Node5</title>
<path fill="none" stroke="midnightblue" d="M184.34,-10C198.388,-10 212.82,-10 223.731,-10"/>
<polygon fill="midnightblue" stroke="midnightblue" points="184.235,-6.5001 174.235,-10 184.235,-13.5001 184.235,-6.5001"/>
</g>
</g>
</svg>
