<?xml version="1.0" encoding="UTF-8" standalone="no"?>
<!DOCTYPE svg PUBLIC "-//W3C//DTD SVG 1.1//EN"
 "http://www.w3.org/Graphics/SVG/1.1/DTD/svg11.dtd">
<!-- Generated by graphviz version 2.38.0 (20140413.2041)
 -->
<!-- Title: V3HomogeneousV4 Pages: 1 -->
<svg width="252pt" height="978pt"
 viewBox="0.00 0.00 252.00 978.00" xmlns="http://www.w3.org/2000/svg" xmlns:xlink="http://www.w3.org/1999/xlink">
<g id="graph0" class="graph" transform="scale(1 1) rotate(0) translate(4 974)">
<title>V3HomogeneousV4</title>
<polygon fill="white" stroke="none" points="-4,4 -4,-974 248,-974 248,4 -4,4"/>
<!-- Node1 -->
<g id="node1" class="node"><title>Node1</title>
<polygon fill="#bfbfbf" stroke="black" points="0,-475.5 0,-494.5 104,-494.5 104,-475.5 0,-475.5"/>
<text text-anchor="middle" x="52" y="-482.5" font-family="Helvetica,sans-Serif" font-size="10.00">V3HomogeneousV4</text>
</g>
<!-- Node2 -->
<g id="node2" class="node"><title>Node2</title>
<g id="a_node2"><a xlink:href="_matrix_8c.html#a270f31ea541014c756ec97688ed6f77c" target="_top" xlink:title="__attribute__">
<polygon fill="white" stroke="black" points="155.5,-950.5 155.5,-969.5 228.5,-969.5 228.5,-950.5 155.5,-950.5"/>
<text text-anchor="middle" x="192" y="-957.5" font-family="Helvetica,sans-Serif" font-size="10.00">__attribute__</text>
</a>
</g>
</g>
<!-- Node1&#45;&gt;Node2 -->
<g id="edge1" class="edge"><title>Node1&#45;&gt;Node2</title>
<path fill="none" stroke="midnightblue" d="M53.584,-494.772C57.3339,-554.463 79.8058,-869.73 140,-941 141.915,-943.267 144.127,-945.264 146.536,-947.023"/>
<polygon fill="midnightblue" stroke="midnightblue" points="144.926,-950.135 155.331,-952.131 148.442,-944.082 144.926,-950.135"/>
</g>
<!-- Node3 -->
<g id="node3" class="node"><title>Node3</title>
<g id="a_node3"><a xlink:href="_matrix_8h.html#ad4da8e008fd1cf3337c6a2054f61b045" target="_top" xlink:title="M2Det">
<polygon fill="white" stroke="black" points="169,-912.5 169,-931.5 215,-931.5 215,-912.5 169,-912.5"/>
<text text-anchor="middle" x="192" y="-919.5" font-family="Helvetica,sans-Serif" font-size="10.00">M2Det</text>
</a>
</g>
</g>
<!-- Node1&#45;&gt;Node3 -->
<g id="edge2" class="edge"><title>Node1&#45;&gt;Node3</title>
<path fill="none" stroke="midnightblue" d="M53.7607,-494.687C58.3793,-551.216 84.3348,-838.197 140,-903 144.995,-908.815 151.945,-912.852 159.111,-915.655"/>
<polygon fill="midnightblue" stroke="midnightblue" points="158.26,-919.057 168.851,-918.762 160.388,-912.388 158.26,-919.057"/>
</g>
<!-- Node4 -->
<g id="node4" class="node"><title>Node4</title>
<g id="a_node4"><a xlink:href="_matrix_8h.html#a77161877950cc4c71d42f0c0ef471324" target="_top" xlink:title="M3Det">
<polygon fill="white" stroke="black" points="169,-874.5 169,-893.5 215,-893.5 215,-874.5 169,-874.5"/>
<text text-anchor="middle" x="192" y="-881.5" font-family="Helvetica,sans-Serif" font-size="10.00">M3Det</text>
</a>
</g>
</g>
<!-- Node1&#45;&gt;Node4 -->
<g id="edge3" class="edge"><title>Node1&#45;&gt;Node4</title>
<path fill="none" stroke="midnightblue" d="M53.9947,-494.845C59.6101,-548.636 88.9245,-806.721 140,-865 145.052,-870.765 152.024,-874.784 159.191,-877.585"/>
<polygon fill="midnightblue" stroke="midnightblue" points="158.333,-880.985 168.924,-880.699 160.466,-874.318 158.333,-880.985"/>
</g>
<!-- Node5 -->
<g id="node5" class="node"><title>Node5</title>
<g id="a_node5"><a xlink:href="_matrix_8h.html#a1d346a27e924e61eb6f539f844571587" target="_top" xlink:title="M4Det">
<polygon fill="white" stroke="black" points="169,-836.5 169,-855.5 215,-855.5 215,-836.5 169,-836.5"/>
<text text-anchor="middle" x="192" y="-843.5" font-family="Helvetica,sans-Serif" font-size="10.00">M4Det</text>
</a>
</g>
</g>
<!-- Node1&#45;&gt;Node5 -->
<g id="edge4" class="edge"><title>Node1&#45;&gt;Node5</title>
<path fill="none" stroke="midnightblue" d="M54.22,-494.514C60.7833,-544.353 93.3384,-775.031 140,-827 145.078,-832.655 152,-836.632 159.105,-839.428"/>
<polygon fill="midnightblue" stroke="midnightblue" points="158.161,-842.801 168.753,-842.554 160.319,-836.142 158.161,-842.801"/>
</g>
<!-- Node6 -->
<g id="node6" class="node"><title>Node6</title>
<g id="a_node6"><a xlink:href="_matrix_8h.html#a278f63679b31e1af9238dd4963fb8d3e" target="_top" xlink:title="M2Inv">
<polygon fill="white" stroke="black" points="170,-798.5 170,-817.5 214,-817.5 214,-798.5 170,-798.5"/>
<text text-anchor="middle" x="192" y="-805.5" font-family="Helvetica,sans-Serif" font-size="10.00">M2Inv</text>
</a>
</g>
</g>
<!-- Node1&#45;&gt;Node6 -->
<g id="edge5" class="edge"><title>Node1&#45;&gt;Node6</title>
<path fill="none" stroke="midnightblue" d="M52.8186,-494.648C52.5724,-535.889 57.0587,-699.333 140,-789 145.398,-794.836 152.756,-798.888 160.203,-801.698"/>
<polygon fill="midnightblue" stroke="midnightblue" points="159.298,-805.082 169.887,-804.723 161.386,-798.401 159.298,-805.082"/>
</g>
<!-- Node7 -->
<g id="node7" class="node"><title>Node7</title>
<g id="a_node7"><a xlink:href="_matrix_8h.html#abd50f3cffb505412393b0455decb6e5d" target="_top" xlink:title="M2MulF">
<polygon fill="white" stroke="black" points="166,-760.5 166,-779.5 218,-779.5 218,-760.5 166,-760.5"/>
<text text-anchor="middle" x="192" y="-767.5" font-family="Helvetica,sans-Serif" font-size="10.00">M2MulF</text>
</a>
</g>
</g>
<!-- Node1&#45;&gt;Node7 -->
<g id="edge6" class="edge"><title>Node1&#45;&gt;Node7</title>
<path fill="none" stroke="midnightblue" d="M53.2851,-494.727C54.925,-532.868 65.9618,-673.899 140,-751 144.51,-755.696 150.286,-759.241 156.322,-761.913"/>
<polygon fill="midnightblue" stroke="midnightblue" points="155.28,-765.26 165.873,-765.436 157.702,-758.692 155.28,-765.26"/>
</g>
<!-- Node8 -->
<g id="node8" class="node"><title>Node8</title>
<g id="a_node8"><a xlink:href="_matrix_8h.html#ac3ea7e124ccbb9e81db0f331fae618cb" target="_top" xlink:title="M3Inv">
<polygon fill="white" stroke="black" points="170,-722.5 170,-741.5 214,-741.5 214,-722.5 170,-722.5"/>
<text text-anchor="middle" x="192" y="-729.5" font-family="Helvetica,sans-Serif" font-size="10.00">M3Inv</text>
</a>
</g>
</g>
<!-- Node1&#45;&gt;Node8 -->
<g id="edge7" class="edge"><title>Node1&#45;&gt;Node8</title>
<path fill="none" stroke="midnightblue" d="M53.8981,-494.754C57.6031,-529.448 74.7344,-648.248 140,-713 145.534,-718.49 152.797,-722.415 160.101,-725.213"/>
<polygon fill="midnightblue" stroke="midnightblue" points="159.336,-728.644 169.927,-728.372 161.478,-721.979 159.336,-728.644"/>
</g>
<!-- Node9 -->
<g id="node9" class="node"><title>Node9</title>
<g id="a_node9"><a xlink:href="_matrix_8h.html#a2993fdd47f1bc602dd9f1057bf67e21d" target="_top" xlink:title="M3MulF">
<polygon fill="white" stroke="black" points="166,-684.5 166,-703.5 218,-703.5 218,-684.5 166,-684.5"/>
<text text-anchor="middle" x="192" y="-691.5" font-family="Helvetica,sans-Serif" font-size="10.00">M3MulF</text>
</a>
</g>
</g>
<!-- Node1&#45;&gt;Node9 -->
<g id="edge8" class="edge"><title>Node1&#45;&gt;Node9</title>
<path fill="none" stroke="midnightblue" d="M54.749,-494.827C60.7599,-525.791 83.4059,-622.382 140,-675 144.677,-679.349 150.44,-682.726 156.389,-685.341"/>
<polygon fill="midnightblue" stroke="midnightblue" points="155.17,-688.621 165.762,-688.853 157.626,-682.066 155.17,-688.621"/>
</g>
<!-- Node10 -->
<g id="node10" class="node"><title>Node10</title>
<g id="a_node10"><a xlink:href="_matrix_8h.html#aeacef87ad8c4f02358831db4612afec7" target="_top" xlink:title="M4Inv">
<polygon fill="white" stroke="black" points="170,-646.5 170,-665.5 214,-665.5 214,-646.5 170,-646.5"/>
<text text-anchor="middle" x="192" y="-653.5" font-family="Helvetica,sans-Serif" font-size="10.00">M4Inv</text>
</a>
</g>
</g>
<!-- Node1&#45;&gt;Node10 -->
<g id="edge9" class="edge"><title>Node1&#45;&gt;Node10</title>
<path fill="none" stroke="midnightblue" d="M55.9434,-494.711C64.4849,-521.309 91.7828,-596.075 140,-637 145.844,-641.96 153.106,-645.685 160.3,-648.459"/>
<polygon fill="midnightblue" stroke="midnightblue" points="159.334,-651.826 169.928,-651.679 161.554,-645.188 159.334,-651.826"/>
</g>
<!-- Node11 -->
<g id="node11" class="node"><title>Node11</title>
<g id="a_node11"><a xlink:href="_matrix_8h.html#acde3397799ee34654058d12508e46edf" target="_top" xlink:title="M4MulF">
<polygon fill="white" stroke="black" points="166,-608.5 166,-627.5 218,-627.5 218,-608.5 166,-608.5"/>
<text text-anchor="middle" x="192" y="-615.5" font-family="Helvetica,sans-Serif" font-size="10.00">M4MulF</text>
</a>
</g>
</g>
<!-- Node1&#45;&gt;Node11 -->
<g id="edge10" class="edge"><title>Node1&#45;&gt;Node11</title>
<path fill="none" stroke="midnightblue" d="M57.925,-494.723C69.3971,-516.449 99.9948,-569.353 140,-599 144.912,-602.64 150.599,-605.654 156.355,-608.125"/>
<polygon fill="midnightblue" stroke="midnightblue" points="155.392,-611.504 165.984,-611.788 157.881,-604.961 155.392,-611.504"/>
</g>
<!-- Node12 -->
<g id="node12" class="node"><title>Node12</title>
<g id="a_node12"><a xlink:href="_matrix_8h.html#a4b5a836132226737b929e8763f9a18fc" target="_top" xlink:title="M3StackRotation">
<polygon fill="white" stroke="black" points="146,-570.5 146,-589.5 238,-589.5 238,-570.5 146,-570.5"/>
<text text-anchor="middle" x="192" y="-577.5" font-family="Helvetica,sans-Serif" font-size="10.00">M3StackRotation</text>
</a>
</g>
</g>
<!-- Node1&#45;&gt;Node12 -->
<g id="edge11" class="edge"><title>Node1&#45;&gt;Node12</title>
<path fill="none" stroke="midnightblue" d="M61.7689,-494.657C76.5477,-510.439 107.953,-541.907 140,-561 143.374,-563.01 146.996,-564.868 150.698,-566.571"/>
<polygon fill="midnightblue" stroke="midnightblue" points="149.391,-569.818 159.965,-570.481 152.112,-563.369 149.391,-569.818"/>
</g>
<!-- Node13 -->
<g id="node13" class="node"><title>Node13</title>
<g id="a_node13"><a xlink:href="_matrix_8h.html#a6b37e1c344b399c21d5b40b753f949cb" target="_top" xlink:title="M3Rotate">
<polygon fill="white" stroke="black" points="162.5,-532.5 162.5,-551.5 221.5,-551.5 221.5,-532.5 162.5,-532.5"/>
<text text-anchor="middle" x="192" y="-539.5" font-family="Helvetica,sans-Serif" font-size="10.00">M3Rotate</text>
</a>
</g>
</g>
<!-- Node1&#45;&gt;Node13 -->
<g id="edge12" class="edge"><title>Node1&#45;&gt;Node13</title>
<path fill="none" stroke="midnightblue" d="M73.9585,-494.542C91.4953,-502.432 117.232,-513.795 140,-523 144.804,-524.942 149.891,-526.925 154.918,-528.84"/>
<polygon fill="midnightblue" stroke="midnightblue" points="153.831,-532.171 164.423,-532.415 156.295,-525.619 153.831,-532.171"/>
</g>
<!-- Node14 -->
<g id="node14" class="node"><title>Node14</title>
<g id="a_node14"><a xlink:href="_matrix_8h.html#a8b0f4819610d49bc8446ffeecd213fed" target="_top" xlink:title="M3Scale">
<polygon fill="white" stroke="black" points="164.5,-494.5 164.5,-513.5 219.5,-513.5 219.5,-494.5 164.5,-494.5"/>
<text text-anchor="middle" x="192" y="-501.5" font-family="Helvetica,sans-Serif" font-size="10.00">M3Scale</text>
</a>
</g>
</g>
<!-- Node1&#45;&gt;Node14 -->
<g id="edge13" class="edge"><title>Node1&#45;&gt;Node14</title>
<path fill="none" stroke="midnightblue" d="M104.386,-492.075C120.948,-494.355 138.961,-496.835 154.249,-498.94"/>
<polygon fill="midnightblue" stroke="midnightblue" points="153.962,-502.434 164.346,-500.33 154.917,-495.499 153.962,-502.434"/>
</g>
<!-- Node15 -->
<g id="node15" class="node"><title>Node15</title>
<g id="a_node15"><a xlink:href="_matrix_8h.html#a542c0c16864a9fbcfe8c64930fc1b66e" target="_top" xlink:title="M3StackTranslate">
<polygon fill="white" stroke="black" points="144,-456.5 144,-475.5 240,-475.5 240,-456.5 144,-456.5"/>
<text text-anchor="middle" x="192" y="-463.5" font-family="Helvetica,sans-Serif" font-size="10.00">M3StackTranslate</text>
</a>
</g>
</g>
<!-- Node1&#45;&gt;Node15 -->
<g id="edge14" class="edge"><title>Node1&#45;&gt;Node15</title>
<path fill="none" stroke="midnightblue" d="M104.386,-477.925C113.941,-476.61 123.979,-475.228 133.698,-473.889"/>
<polygon fill="midnightblue" stroke="midnightblue" points="134.248,-477.347 143.677,-472.515 133.293,-470.412 134.248,-477.347"/>
</g>
<!-- Node16 -->
<g id="node16" class="node"><title>Node16</title>
<g id="a_node16"><a xlink:href="_matrix_8h.html#a2fea777c70b83d7cf9519b466f9521a1" target="_top" xlink:title="M3Print">
<polygon fill="white" stroke="black" points="167,-418.5 167,-437.5 217,-437.5 217,-418.5 167,-418.5"/>
<text text-anchor="middle" x="192" y="-425.5" font-family="Helvetica,sans-Serif" font-size="10.00">M3Print</text>
</a>
</g>
</g>
<!-- Node1&#45;&gt;Node16 -->
<g id="edge15" class="edge"><title>Node1&#45;&gt;Node16</title>
<path fill="none" stroke="midnightblue" d="M73.9585,-475.458C91.4953,-467.568 117.232,-456.205 140,-447 145.556,-444.754 151.489,-442.454 157.271,-440.266"/>
<polygon fill="midnightblue" stroke="midnightblue" points="158.626,-443.496 166.767,-436.717 156.175,-436.939 158.626,-443.496"/>
</g>
<!-- Node17 -->
<g id="node17" class="node"><title>Node17</title>
<g id="a_node17"><a xlink:href="_matrix_8h.html#ab401a909fab1437880233d031a827cef" target="_top" xlink:title="V2Lerp">
<polygon fill="white" stroke="black" points="168.5,-380.5 168.5,-399.5 215.5,-399.5 215.5,-380.5 168.5,-380.5"/>
<text text-anchor="middle" x="192" y="-387.5" font-family="Helvetica,sans-Serif" font-size="10.00">V2Lerp</text>
</a>
</g>
</g>
<!-- Node1&#45;&gt;Node17 -->
<g id="edge16" class="edge"><title>Node1&#45;&gt;Node17</title>
<path fill="none" stroke="midnightblue" d="M61.7689,-475.343C76.5477,-459.561 107.953,-428.093 140,-409 145.753,-405.572 152.23,-402.586 158.588,-400.06"/>
<polygon fill="midnightblue" stroke="midnightblue" points="160.181,-403.204 168.362,-396.471 157.769,-396.633 160.181,-403.204"/>
</g>
<!-- Node18 -->
<g id="node18" class="node"><title>Node18</title>
<g id="a_node18"><a xlink:href="_matrix_8h.html#aba22983dc2de2c25470818a7314c963a" target="_top" xlink:title="V2Add">
<polygon fill="white" stroke="black" points="169,-342.5 169,-361.5 215,-361.5 215,-342.5 169,-342.5"/>
<text text-anchor="middle" x="192" y="-349.5" font-family="Helvetica,sans-Serif" font-size="10.00">V2Add</text>
</a>
</g>
</g>
<!-- Node1&#45;&gt;Node18 -->
<g id="edge17" class="edge"><title>Node1&#45;&gt;Node18</title>
<path fill="none" stroke="midnightblue" d="M57.925,-475.277C69.3971,-453.551 99.9948,-400.647 140,-371 145.712,-366.767 152.473,-363.38 159.172,-360.709"/>
<polygon fill="midnightblue" stroke="midnightblue" points="160.558,-363.931 168.814,-357.291 158.219,-357.333 160.558,-363.931"/>
</g>
<!-- Node19 -->
<g id="node19" class="node"><title>Node19</title>
<g id="a_node19"><a xlink:href="_matrix_8h.html#af2c1ada3596ca6e55260f1855b13fb44" target="_top" xlink:title="V2Scale">
<polygon fill="white" stroke="black" points="165.5,-304.5 165.5,-323.5 218.5,-323.5 218.5,-304.5 165.5,-304.5"/>
<text text-anchor="middle" x="192" y="-311.5" font-family="Helvetica,sans-Serif" font-size="10.00">V2Scale</text>
</a>
</g>
</g>
<!-- Node1&#45;&gt;Node19 -->
<g id="edge18" class="edge"><title>Node1&#45;&gt;Node19</title>
<path fill="none" stroke="midnightblue" d="M55.9434,-475.289C64.4849,-448.691 91.7828,-373.925 140,-333 144.615,-329.083 150.114,-325.937 155.765,-323.42"/>
<polygon fill="midnightblue" stroke="midnightblue" points="157.215,-326.613 165.291,-319.756 154.701,-320.08 157.215,-326.613"/>
</g>
<!-- Node20 -->
<g id="node20" class="node"><title>Node20</title>
<g id="a_node20"><a xlink:href="_matrix_8h.html#a35340cb74d76ac11fb70ddddbfcc39cf" target="_top" xlink:title="V2CirclePos">
<polygon fill="white" stroke="black" points="156.5,-266.5 156.5,-285.5 227.5,-285.5 227.5,-266.5 156.5,-266.5"/>
<text text-anchor="middle" x="192" y="-273.5" font-family="Helvetica,sans-Serif" font-size="10.00">V2CirclePos</text>
</a>
</g>
</g>
<!-- Node1&#45;&gt;Node20 -->
<g id="edge19" class="edge"><title>Node1&#45;&gt;Node20</title>
<path fill="none" stroke="midnightblue" d="M54.749,-475.173C60.7599,-444.209 83.4059,-347.618 140,-295 142.279,-292.881 144.816,-290.993 147.507,-289.311"/>
<polygon fill="midnightblue" stroke="midnightblue" points="149.255,-292.346 156.497,-284.612 146.013,-286.142 149.255,-292.346"/>
</g>
<!-- Node21 -->
<g id="node21" class="node"><title>Node21</title>
<g id="a_node21"><a xlink:href="_matrix_8h.html#a9beb4d0a606539eb3018a69dc2772ff2" target="_top" xlink:title="V2Polar">
<polygon fill="white" stroke="black" points="166.5,-228.5 166.5,-247.5 217.5,-247.5 217.5,-228.5 166.5,-228.5"/>
<text text-anchor="middle" x="192" y="-235.5" font-family="Helvetica,sans-Serif" font-size="10.00">V2Polar</text>
</a>
</g>
</g>
<!-- Node1&#45;&gt;Node21 -->
<g id="edge20" class="edge"><title>Node1&#45;&gt;Node21</title>
<path fill="none" stroke="midnightblue" d="M53.8981,-475.246C57.6031,-440.552 74.7344,-321.752 140,-257 144.666,-252.371 150.562,-248.854 156.675,-246.188"/>
<polygon fill="midnightblue" stroke="midnightblue" points="158.126,-249.384 166.314,-242.66 155.72,-242.81 158.126,-249.384"/>
</g>
<!-- Node22 -->
<g id="node22" class="node"><title>Node22</title>
<g id="a_node22"><a xlink:href="_matrix_8h.html#a51ff267e4b261b907c2b25c6250d0a49" target="_top" xlink:title="V2Rotate">
<polygon fill="white" stroke="black" points="163,-190.5 163,-209.5 221,-209.5 221,-190.5 163,-190.5"/>
<text text-anchor="middle" x="192" y="-197.5" font-family="Helvetica,sans-Serif" font-size="10.00">V2Rotate</text>
</a>
</g>
</g>
<!-- Node1&#45;&gt;Node22 -->
<g id="edge21" class="edge"><title>Node1&#45;&gt;Node22</title>
<path fill="none" stroke="midnightblue" d="M53.2851,-475.273C54.925,-437.132 65.9618,-296.101 140,-219 143.845,-214.996 148.611,-211.829 153.673,-209.326"/>
<polygon fill="midnightblue" stroke="midnightblue" points="155.054,-212.543 162.969,-205.5 152.39,-206.069 155.054,-212.543"/>
</g>
<!-- Node23 -->
<g id="node23" class="node"><title>Node23</title>
<g id="a_node23"><a xlink:href="_matrix_8h.html#a25f847397c8493f16a91c32183f06a9e" target="_top" xlink:title="V2RotatePreComp">
<polygon fill="white" stroke="black" points="142.5,-152.5 142.5,-171.5 241.5,-171.5 241.5,-152.5 142.5,-152.5"/>
<text text-anchor="middle" x="192" y="-159.5" font-family="Helvetica,sans-Serif" font-size="10.00">V2RotatePreComp</text>
</a>
</g>
</g>
<!-- Node1&#45;&gt;Node23 -->
<g id="edge22" class="edge"><title>Node1&#45;&gt;Node23</title>
<path fill="none" stroke="midnightblue" d="M52.8186,-475.352C52.5724,-434.111 57.0587,-270.667 140,-181 141.347,-179.543 142.817,-178.198 144.379,-176.955"/>
<polygon fill="midnightblue" stroke="midnightblue" points="146.288,-179.889 152.833,-171.558 142.52,-173.989 146.288,-179.889"/>
</g>
<!-- Node24 -->
<g id="node24" class="node"><title>Node24</title>
<g id="a_node24"><a xlink:href="_matrix_8h.html#ad676bb8dc9d5766d26b225f3677bb17b" target="_top" xlink:title="V2MagSquared">
<polygon fill="white" stroke="black" points="150.5,-114.5 150.5,-133.5 233.5,-133.5 233.5,-114.5 150.5,-114.5"/>
<text text-anchor="middle" x="192" y="-121.5" font-family="Helvetica,sans-Serif" font-size="10.00">V2MagSquared</text>
</a>
</g>
</g>
<!-- Node1&#45;&gt;Node24 -->
<g id="edge23" class="edge"><title>Node1&#45;&gt;Node24</title>
<path fill="none" stroke="midnightblue" d="M54.22,-475.486C60.7833,-425.647 93.3384,-194.969 140,-143 141.193,-141.671 142.489,-140.434 143.864,-139.284"/>
<polygon fill="midnightblue" stroke="midnightblue" points="146.059,-142.029 152.472,-133.595 142.199,-136.189 146.059,-142.029"/>
</g>
<!-- Node25 -->
<g id="node25" class="node"><title>Node25</title>
<g id="a_node25"><a xlink:href="_matrix_8h.html#aeb7a2f733a8f174a07a0aae8fcc541be" target="_top" xlink:title="V2Dot">
<polygon fill="white" stroke="black" points="170,-76.5 170,-95.5 214,-95.5 214,-76.5 170,-76.5"/>
<text text-anchor="middle" x="192" y="-83.5" font-family="Helvetica,sans-Serif" font-size="10.00">V2Dot</text>
</a>
</g>
</g>
<!-- Node1&#45;&gt;Node25 -->
<g id="edge24" class="edge"><title>Node1&#45;&gt;Node25</title>
<path fill="none" stroke="midnightblue" d="M53.9947,-475.155C59.6101,-421.364 88.9245,-163.279 140,-105 145.283,-98.9722 152.664,-94.8529 160.174,-92.0393"/>
<polygon fill="midnightblue" stroke="midnightblue" points="161.418,-95.3186 169.953,-89.0417 159.367,-88.626 161.418,-95.3186"/>
</g>
<!-- Node26 -->
<g id="node26" class="node"><title>Node26</title>
<g id="a_node26"><a xlink:href="_matrix_8h.html#ac9ccb6b7fcf9b2299b4af5f95a2eb754" target="_top" xlink:title="V2DistanceSquared">
<polygon fill="white" stroke="black" points="140,-38.5 140,-57.5 244,-57.5 244,-38.5 140,-38.5"/>
<text text-anchor="middle" x="192" y="-45.5" font-family="Helvetica,sans-Serif" font-size="10.00">V2DistanceSquared</text>
</a>
</g>
</g>
<!-- Node1&#45;&gt;Node26 -->
<g id="edge25" class="edge"><title>Node1&#45;&gt;Node26</title>
<path fill="none" stroke="midnightblue" d="M53.7607,-475.313C58.3793,-418.784 84.3348,-131.803 140,-67 141.143,-65.6695 142.388,-64.4321 143.715,-63.2813"/>
<polygon fill="midnightblue" stroke="midnightblue" points="145.77,-66.1164 152.06,-57.5911 141.826,-60.3328 145.77,-66.1164"/>
</g>
<!-- Node27 -->
<g id="node27" class="node"><title>Node27</title>
<g id="a_node27"><a xlink:href="_matrix_8h.html#ad183ec2079194d9c70633e3e328163b6" target="_top" xlink:title="V2Sub">
<polygon fill="white" stroke="black" points="169,-0.5 169,-19.5 215,-19.5 215,-0.5 169,-0.5"/>
<text text-anchor="middle" x="192" y="-7.5" font-family="Helvetica,sans-Serif" font-size="10.00">V2Sub</text>
</a>
</g>
</g>
<!-- Node1&#45;&gt;Node27 -->
<g id="edge26" class="edge"><title>Node1&#45;&gt;Node27</title>
<path fill="none" stroke="midnightblue" d="M53.584,-475.228C57.3339,-415.537 79.8058,-100.27 140,-29 144.946,-23.144 151.879,-19.0914 159.042,-16.2874"/>
<polygon fill="midnightblue" stroke="midnightblue" points="160.322,-19.5533 168.789,-13.1855 158.199,-12.883 160.322,-19.5533"/>
</g>
</g>
</svg>
