<?xml version="1.0" encoding="UTF-8" standalone="no"?>
<!DOCTYPE svg PUBLIC "-//W3C//DTD SVG 1.1//EN"
 "http://www.w3.org/Graphics/SVG/1.1/DTD/svg11.dtd">
<!-- Generated by graphviz version 2.38.0 (20140413.2041)
 -->
<!-- Title: M3Rotate Pages: 1 -->
<svg width="281pt" height="66pt"
 viewBox="0.00 0.00 281.00 66.00" xmlns="http://www.w3.org/2000/svg" xmlns:xlink="http://www.w3.org/1999/xlink">
<g id="graph0" class="graph" transform="scale(1 1) rotate(0) translate(4 62)">
<title>M3Rotate</title>
<polygon fill="white" stroke="none" points="-4,4 -4,-62 277,-62 277,4 -4,4"/>
<!-- Node1 -->
<g id="node1" class="node"><title>Node1</title>
<polygon fill="#bfbfbf" stroke="black" points="0,-19.5 0,-38.5 59,-38.5 59,-19.5 0,-19.5"/>
<text text-anchor="middle" x="29.5" y="-26.5" font-family="Helvetica,sans-Serif" font-size="10.00">M3Rotate</text>
</g>
<!-- Node2 -->
<g id="node2" class="node"><title>Node2</title>
<g id="a_node2"><a xlink:href="_draw_8h.html#ae39baa177eafe9cad35d363fc683d77f" target="_top" xlink:title="Draw">
<polygon fill="white" stroke="black" points="127,-38.5 127,-57.5 167,-57.5 167,-38.5 127,-38.5"/>
<text text-anchor="middle" x="147" y="-45.5" font-family="Helvetica,sans-Serif" font-size="10.00">Draw</text>
</a>
</g>
</g>
<!-- Node1&#45;&gt;Node2 -->
<g id="edge1" class="edge"><title>Node1&#45;&gt;Node2</title>
<path fill="none" stroke="midnightblue" d="M69.1309,-35.3549C88.5191,-38.5443 111.148,-42.2668 126.81,-44.8432"/>
<polygon fill="midnightblue" stroke="midnightblue" points="69.4861,-31.8663 59.0506,-33.6966 68.3498,-38.7735 69.4861,-31.8663"/>
</g>
<!-- Node4 -->
<g id="node4" class="node"><title>Node4</title>
<g id="a_node4"><a xlink:href="_matrix_8h.html#abcc4a787ddf9e9ce86f3cef4f3414f09" target="_top" xlink:title="V3HomogeneousV4">
<polygon fill="white" stroke="black" points="95,-0.5 95,-19.5 199,-19.5 199,-0.5 95,-0.5"/>
<text text-anchor="middle" x="147" y="-7.5" font-family="Helvetica,sans-Serif" font-size="10.00">V3HomogeneousV4</text>
</a>
</g>
</g>
<!-- Node1&#45;&gt;Node4 -->
<g id="edge3" class="edge"><title>Node1&#45;&gt;Node4</title>
<path fill="none" stroke="midnightblue" d="M69.1207,-22.6468C77.365,-21.2906 86.1957,-19.8379 94.8277,-18.4179"/>
<polygon fill="midnightblue" stroke="midnightblue" points="68.3498,-19.2265 59.0506,-24.3034 69.4861,-26.1337 68.3498,-19.2265"/>
</g>
<!-- Node3 -->
<g id="node3" class="node"><title>Node3</title>
<g id="a_node3"><a xlink:href="_main_8c.html#a3c04138a5bfe5d72780bb7e82a18e627" target="_top" xlink:title="main">
<polygon fill="white" stroke="black" points="235,-38.5 235,-57.5 273,-57.5 273,-38.5 235,-38.5"/>
<text text-anchor="middle" x="254" y="-45.5" font-family="Helvetica,sans-Serif" font-size="10.00">main</text>
</a>
</g>
</g>
<!-- Node2&#45;&gt;Node3 -->
<g id="edge2" class="edge"><title>Node2&#45;&gt;Node3</title>
<path fill="none" stroke="midnightblue" d="M177.489,-48C195.948,-48 219.139,-48 234.916,-48"/>
<polygon fill="midnightblue" stroke="midnightblue" points="177.259,-44.5001 167.259,-48 177.259,-51.5001 177.259,-44.5001"/>
</g>
</g>
</svg>
