<?xml version="1.0" encoding="UTF-8" standalone="no"?>
<!DOCTYPE svg PUBLIC "-//W3C//DTD SVG 1.1//EN"
 "http://www.w3.org/Graphics/SVG/1.1/DTD/svg11.dtd">
<!-- Generated by graphviz version 2.38.0 (20140413.2041)
 -->
<!-- Title: ProcessPlayer Pages: 1 -->
<svg width="363pt" height="446pt"
 viewBox="0.00 0.00 363.00 446.00" xmlns="http://www.w3.org/2000/svg" xmlns:xlink="http://www.w3.org/1999/xlink">
<g id="graph0" class="graph" transform="scale(1 1) rotate(0) translate(4 442)">
<title>ProcessPlayer</title>
<polygon fill="white" stroke="none" points="-4,4 -4,-442 359,-442 359,4 -4,4"/>
<!-- Node1 -->
<g id="node1" class="node"><title>Node1</title>
<polygon fill="#bfbfbf" stroke="black" points="0,-209.5 0,-228.5 80,-228.5 80,-209.5 0,-209.5"/>
<text text-anchor="middle" x="40" y="-216.5" font-family="Helvetica,sans-Serif" font-size="10.00">ProcessPlayer</text>
</g>
<!-- Node2 -->
<g id="node2" class="node"><title>Node2</title>
<g id="a_node2"><a xlink:href="_player_8c.html#a586c8f2f759d97f756ce3f483549edcf" target="_top" xlink:title="createbitstr">
<polygon fill="white" stroke="black" points="135.5,-418.5 135.5,-437.5 200.5,-437.5 200.5,-418.5 135.5,-418.5"/>
<text text-anchor="middle" x="168" y="-425.5" font-family="Helvetica,sans-Serif" font-size="10.00">createbitstr</text>
</a>
</g>
</g>
<!-- Node1&#45;&gt;Node2 -->
<g id="edge1" class="edge"><title>Node1&#45;&gt;Node2</title>
<path fill="none" stroke="midnightblue" d="M42.0728,-228.804C45.9635,-259.699 62.0738,-356.107 116,-409 119.035,-411.977 122.58,-414.495 126.36,-416.623"/>
<polygon fill="midnightblue" stroke="midnightblue" points="124.942,-419.823 135.481,-420.912 127.921,-413.489 124.942,-419.823"/>
</g>
<!-- Node3 -->
<g id="node3" class="node"><title>Node3</title>
<g id="a_node3"><a xlink:href="_matrix_8h.html#a51ff267e4b261b907c2b25c6250d0a49" target="_top" xlink:title="V2Rotate">
<polygon fill="white" stroke="black" points="139,-380.5 139,-399.5 197,-399.5 197,-380.5 139,-380.5"/>
<text text-anchor="middle" x="168" y="-387.5" font-family="Helvetica,sans-Serif" font-size="10.00">V2Rotate</text>
</a>
</g>
</g>
<!-- Node1&#45;&gt;Node3 -->
<g id="edge2" class="edge"><title>Node1&#45;&gt;Node3</title>
<path fill="none" stroke="midnightblue" d="M43.5091,-228.56C50.6552,-254.093 73.3996,-324.739 116,-366 120.042,-369.915 124.841,-373.282 129.853,-376.149"/>
<polygon fill="midnightblue" stroke="midnightblue" points="128.486,-379.38 138.988,-380.783 131.653,-373.138 128.486,-379.38"/>
</g>
<!-- Node4 -->
<g id="node4" class="node"><title>Node4</title>
<g id="a_node4"><a xlink:href="_world_8h.html#ad0e402efe989d42fd5cf3cf7fc6e3c3e" target="_top" xlink:title="getVisualPos">
<polygon fill="white" stroke="black" points="131,-266.5 131,-285.5 205,-285.5 205,-266.5 131,-266.5"/>
<text text-anchor="middle" x="168" y="-273.5" font-family="Helvetica,sans-Serif" font-size="10.00">getVisualPos</text>
</a>
</g>
</g>
<!-- Node1&#45;&gt;Node4 -->
<g id="edge3" class="edge"><title>Node1&#45;&gt;Node4</title>
<path fill="none" stroke="midnightblue" d="M62.0896,-228.541C82.4411,-237.747 113.472,-251.785 136.511,-262.207"/>
<polygon fill="midnightblue" stroke="midnightblue" points="135.288,-265.496 145.842,-266.428 138.173,-259.118 135.288,-265.496"/>
</g>
<!-- Node5 -->
<g id="node5" class="node"><title>Node5</title>
<g id="a_node5"><a xlink:href="_matrix_8h.html#af2c1ada3596ca6e55260f1855b13fb44" target="_top" xlink:title="V2Scale">
<polygon fill="white" stroke="black" points="279,-342.5 279,-361.5 332,-361.5 332,-342.5 279,-342.5"/>
<text text-anchor="middle" x="305.5" y="-349.5" font-family="Helvetica,sans-Serif" font-size="10.00">V2Scale</text>
</a>
</g>
</g>
<!-- Node1&#45;&gt;Node5 -->
<g id="edge10" class="edge"><title>Node1&#45;&gt;Node5</title>
<path fill="none" stroke="midnightblue" d="M45.1282,-228.723C54.4305,-249.337 79.1357,-297.393 116,-320 163.145,-348.912 228.768,-353.745 268.847,-353.595"/>
<polygon fill="midnightblue" stroke="midnightblue" points="269,-357.094 278.948,-353.449 268.898,-350.094 269,-357.094"/>
</g>
<!-- Node6 -->
<g id="node6" class="node"><title>Node6</title>
<g id="a_node6"><a xlink:href="_matrix_8h.html#a9beb4d0a606539eb3018a69dc2772ff2" target="_top" xlink:title="V2Polar">
<polygon fill="white" stroke="black" points="280,-304.5 280,-323.5 331,-323.5 331,-304.5 280,-304.5"/>
<text text-anchor="middle" x="305.5" y="-311.5" font-family="Helvetica,sans-Serif" font-size="10.00">V2Polar</text>
</a>
</g>
</g>
<!-- Node1&#45;&gt;Node6 -->
<g id="edge8" class="edge"><title>Node1&#45;&gt;Node6</title>
<path fill="none" stroke="midnightblue" d="M47.0493,-228.519C58.3043,-245.298 84.2279,-279.799 116,-295 165.465,-318.665 230.447,-319.566 269.757,-317.315"/>
<polygon fill="midnightblue" stroke="midnightblue" points="270.149,-320.796 279.891,-316.631 269.678,-313.812 270.149,-320.796"/>
</g>
<!-- Node7 -->
<g id="node7" class="node"><title>Node7</title>
<g id="a_node7"><a xlink:href="_matrix_8h.html#aba22983dc2de2c25470818a7314c963a" target="_top" xlink:title="V2Add">
<polygon fill="white" stroke="black" points="282.5,-228.5 282.5,-247.5 328.5,-247.5 328.5,-228.5 282.5,-228.5"/>
<text text-anchor="middle" x="305.5" y="-235.5" font-family="Helvetica,sans-Serif" font-size="10.00">V2Add</text>
</a>
</g>
</g>
<!-- Node1&#45;&gt;Node7 -->
<g id="edge9" class="edge"><title>Node1&#45;&gt;Node7</title>
<path fill="none" stroke="midnightblue" d="M80.1641,-221.824C132.278,-225.582 223.473,-232.157 271.987,-235.656"/>
<polygon fill="midnightblue" stroke="midnightblue" points="272,-239.166 282.226,-236.394 272.504,-232.184 272,-239.166"/>
</g>
<!-- Node9 -->
<g id="node9" class="node"><title>Node9</title>
<g id="a_node9"><a xlink:href="_player_8c.html#abd7d0bfb61011756aeda566c4d737e9e" target="_top" xlink:title="sztSubToF">
<polygon fill="white" stroke="black" points="135.5,-190.5 135.5,-209.5 200.5,-209.5 200.5,-190.5 135.5,-190.5"/>
<text text-anchor="middle" x="168" y="-197.5" font-family="Helvetica,sans-Serif" font-size="10.00">sztSubToF</text>
</a>
</g>
</g>
<!-- Node1&#45;&gt;Node9 -->
<g id="edge11" class="edge"><title>Node1&#45;&gt;Node9</title>
<path fill="none" stroke="midnightblue" d="M80.1765,-213.092C94.4769,-210.936 110.698,-208.49 125.217,-206.301"/>
<polygon fill="midnightblue" stroke="midnightblue" points="126.07,-209.712 135.436,-204.76 125.026,-202.79 126.07,-209.712"/>
</g>
<!-- Node10 -->
<g id="node10" class="node"><title>Node10</title>
<g id="a_node10"><a xlink:href="_matrix_8h.html#ad183ec2079194d9c70633e3e328163b6" target="_top" xlink:title="V2Sub">
<polygon fill="white" stroke="black" points="145,-152.5 145,-171.5 191,-171.5 191,-152.5 145,-152.5"/>
<text text-anchor="middle" x="168" y="-159.5" font-family="Helvetica,sans-Serif" font-size="10.00">V2Sub</text>
</a>
</g>
</g>
<!-- Node1&#45;&gt;Node10 -->
<g id="edge12" class="edge"><title>Node1&#45;&gt;Node10</title>
<path fill="none" stroke="midnightblue" d="M58.6115,-209.368C73.6419,-201.32 95.944,-189.784 116,-181 122.134,-178.313 128.781,-175.658 135.186,-173.223"/>
<polygon fill="midnightblue" stroke="midnightblue" points="136.786,-176.363 144.945,-169.604 134.352,-169.799 136.786,-176.363"/>
</g>
<!-- Node11 -->
<g id="node11" class="node"><title>Node11</title>
<g id="a_node11"><a xlink:href="_matrix_8h.html#aeb7a2f733a8f174a07a0aae8fcc541be" target="_top" xlink:title="V2Dot">
<polygon fill="white" stroke="black" points="146,-114.5 146,-133.5 190,-133.5 190,-114.5 146,-114.5"/>
<text text-anchor="middle" x="168" y="-121.5" font-family="Helvetica,sans-Serif" font-size="10.00">V2Dot</text>
</a>
</g>
</g>
<!-- Node1&#45;&gt;Node11 -->
<g id="edge13" class="edge"><title>Node1&#45;&gt;Node11</title>
<path fill="none" stroke="midnightblue" d="M48.2631,-209.262C60.5772,-193.364 87.0523,-161.732 116,-143 122.129,-139.034 129.205,-135.731 136.096,-133.052"/>
<polygon fill="midnightblue" stroke="midnightblue" points="137.673,-136.207 145.931,-129.57 135.336,-129.609 137.673,-136.207"/>
</g>
<!-- Node12 -->
<g id="node12" class="node"><title>Node12</title>
<g id="a_node12"><a xlink:href="_matrix_8h.html#ad676bb8dc9d5766d26b225f3677bb17b" target="_top" xlink:title="V2MagSquared">
<polygon fill="white" stroke="black" points="126.5,-76.5 126.5,-95.5 209.5,-95.5 209.5,-76.5 126.5,-76.5"/>
<text text-anchor="middle" x="168" y="-83.5" font-family="Helvetica,sans-Serif" font-size="10.00">V2MagSquared</text>
</a>
</g>
</g>
<!-- Node1&#45;&gt;Node12 -->
<g id="edge14" class="edge"><title>Node1&#45;&gt;Node12</title>
<path fill="none" stroke="midnightblue" d="M44.8767,-209.26C54.011,-187.497 78.9426,-134.525 116,-105 118.252,-103.206 120.69,-101.57 123.238,-100.08"/>
<polygon fill="midnightblue" stroke="midnightblue" points="124.86,-103.182 132.216,-95.5562 121.71,-96.9302 124.86,-103.182"/>
</g>
<!-- Node13 -->
<g id="node13" class="node"><title>Node13</title>
<g id="a_node13"><a xlink:href="_matrix_8h.html#ac9ccb6b7fcf9b2299b4af5f95a2eb754" target="_top" xlink:title="V2DistanceSquared">
<polygon fill="white" stroke="black" points="116,-38.5 116,-57.5 220,-57.5 220,-38.5 116,-38.5"/>
<text text-anchor="middle" x="168" y="-45.5" font-family="Helvetica,sans-Serif" font-size="10.00">V2DistanceSquared</text>
</a>
</g>
</g>
<!-- Node1&#45;&gt;Node13 -->
<g id="edge15" class="edge"><title>Node1&#45;&gt;Node13</title>
<path fill="none" stroke="midnightblue" d="M43.1305,-209.299C49.454,-182.727 70.5752,-108.023 116,-67 117.738,-65.4307 119.617,-63.9871 121.594,-62.6597"/>
<polygon fill="midnightblue" stroke="midnightblue" points="123.723,-65.4801 130.753,-57.5536 120.314,-59.3661 123.723,-65.4801"/>
</g>
<!-- Node14 -->
<g id="node14" class="node"><title>Node14</title>
<g id="a_node14"><a xlink:href="_matrix_8h.html#ae9e21992516890afedfdd5fd15fdec50" target="_top" xlink:title="V2Magnitude">
<polygon fill="white" stroke="black" points="131,-0.5 131,-19.5 205,-19.5 205,-0.5 131,-0.5"/>
<text text-anchor="middle" x="168" y="-7.5" font-family="Helvetica,sans-Serif" font-size="10.00">V2Magnitude</text>
</a>
</g>
</g>
<!-- Node1&#45;&gt;Node14 -->
<g id="edge16" class="edge"><title>Node1&#45;&gt;Node14</title>
<path fill="none" stroke="midnightblue" d="M42.0728,-209.196C45.9635,-178.301 62.0738,-81.8932 116,-29 117.859,-27.1764 119.909,-25.5252 122.088,-24.0305"/>
<polygon fill="midnightblue" stroke="midnightblue" points="124.002,-26.9689 130.992,-19.0069 120.563,-20.8722 124.002,-26.9689"/>
</g>
<!-- Node4&#45;&gt;Node5 -->
<g id="edge4" class="edge"><title>Node4&#45;&gt;Node5</title>
<path fill="none" stroke="midnightblue" d="M181.753,-285.57C198.271,-297.675 228.244,-318.666 256,-333 260.294,-335.217 264.908,-337.337 269.522,-339.303"/>
<polygon fill="midnightblue" stroke="midnightblue" points="268.308,-342.587 278.89,-343.104 270.94,-336.101 268.308,-342.587"/>
</g>
<!-- Node4&#45;&gt;Node6 -->
<g id="edge5" class="edge"><title>Node4&#45;&gt;Node6</title>
<path fill="none" stroke="midnightblue" d="M203.192,-285.589C223.581,-291.307 249.395,-298.546 269.862,-304.286"/>
<polygon fill="midnightblue" stroke="midnightblue" points="269.152,-307.722 279.726,-307.052 271.043,-300.982 269.152,-307.722"/>
</g>
<!-- Node4&#45;&gt;Node7 -->
<g id="edge6" class="edge"><title>Node4&#45;&gt;Node7</title>
<path fill="none" stroke="midnightblue" d="M203.192,-266.411C224.483,-260.44 251.688,-252.811 272.545,-246.962"/>
<polygon fill="midnightblue" stroke="midnightblue" points="273.536,-250.319 282.22,-244.248 271.646,-243.579 273.536,-250.319"/>
</g>
<!-- Node8 -->
<g id="node8" class="node"><title>Node8</title>
<g id="a_node8"><a xlink:href="_matrix_8h.html#a25f847397c8493f16a91c32183f06a9e" target="_top" xlink:title="V2RotatePreComp">
<polygon fill="white" stroke="black" points="256,-266.5 256,-285.5 355,-285.5 355,-266.5 256,-266.5"/>
<text text-anchor="middle" x="305.5" y="-273.5" font-family="Helvetica,sans-Serif" font-size="10.00">V2RotatePreComp</text>
</a>
</g>
</g>
<!-- Node4&#45;&gt;Node8 -->
<g id="edge7" class="edge"><title>Node4&#45;&gt;Node8</title>
<path fill="none" stroke="midnightblue" d="M205.312,-276C217.68,-276 231.845,-276 245.525,-276"/>
<polygon fill="midnightblue" stroke="midnightblue" points="245.854,-279.5 255.854,-276 245.854,-272.5 245.854,-279.5"/>
</g>
</g>
</svg>
