<?xml version="1.0" encoding="UTF-8" standalone="no"?>
<!DOCTYPE svg PUBLIC "-//W3C//DTD SVG 1.1//EN"
 "http://www.w3.org/Graphics/SVG/1.1/DTD/svg11.dtd">
<!-- Generated by graphviz version 2.38.0 (20140413.2041)
 -->
<!-- Title: WorldGraphics.c Pages: 1 -->
<svg width="939pt" height="364pt"
 viewBox="0.00 0.00 938.50 364.00" xmlns="http://www.w3.org/2000/svg" xmlns:xlink="http://www.w3.org/1999/xlink">
<g id="graph0" class="graph" transform="scale(1 1) rotate(0) translate(4 360)">
<title>WorldGraphics.c</title>
<polygon fill="white" stroke="none" points="-4,4 -4,-360 934.5,-360 934.5,4 -4,4"/>
<!-- Node1 -->
<g id="node1" class="node"><title>Node1</title>
<polygon fill="#bfbfbf" stroke="black" points="356.5,-336.5 356.5,-355.5 445.5,-355.5 445.5,-336.5 356.5,-336.5"/>
<text text-anchor="middle" x="401" y="-343.5" font-family="Helvetica,sans-Serif" font-size="10.00">WorldGraphics.c</text>
</g>
<!-- Node2 -->
<g id="node2" class="node"><title>Node2</title>
<g id="a_node2"><a xlink:href="_world_8h.html" target="_top" xlink:title="World.h">
<polygon fill="white" stroke="black" points="350,-280.5 350,-299.5 400,-299.5 400,-280.5 350,-280.5"/>
<text text-anchor="middle" x="375" y="-287.5" font-family="Helvetica,sans-Serif" font-size="10.00">World.h</text>
</a>
</g>
</g>
<!-- Node1&#45;&gt;Node2 -->
<g id="edge1" class="edge"><title>Node1&#45;&gt;Node2</title>
<path fill="none" stroke="midnightblue" d="M396.707,-336.083C393.148,-328.691 387.978,-317.953 383.576,-308.811"/>
<polygon fill="midnightblue" stroke="midnightblue" points="386.705,-307.243 379.213,-299.751 380.398,-310.279 386.705,-307.243"/>
</g>
<!-- Node18 -->
<g id="node18" class="node"><title>Node18</title>
<g id="a_node18"><a xlink:href="_draw_8h.html" target="_top" xlink:title="Draw.h">
<polygon fill="white" stroke="black" points="403,-224.5 403,-243.5 451,-243.5 451,-224.5 403,-224.5"/>
<text text-anchor="middle" x="427" y="-231.5" font-family="Helvetica,sans-Serif" font-size="10.00">Draw.h</text>
</a>
</g>
</g>
<!-- Node1&#45;&gt;Node18 -->
<g id="edge20" class="edge"><title>Node1&#45;&gt;Node18</title>
<path fill="none" stroke="midnightblue" d="M403.04,-336.368C407.236,-318.617 416.915,-277.666 422.604,-253.597"/>
<polygon fill="midnightblue" stroke="midnightblue" points="426.075,-254.128 424.969,-243.591 419.263,-252.518 426.075,-254.128"/>
</g>
<!-- Node3 -->
<g id="node3" class="node"><title>Node3</title>
<g id="a_node3"><a xlink:href="_core_8h.html" target="_top" xlink:title="Core.h">
<polygon fill="white" stroke="black" points="378,-168.5 378,-187.5 424,-187.5 424,-168.5 378,-168.5"/>
<text text-anchor="middle" x="401" y="-175.5" font-family="Helvetica,sans-Serif" font-size="10.00">Core.h</text>
</a>
</g>
</g>
<!-- Node2&#45;&gt;Node3 -->
<g id="edge2" class="edge"><title>Node2&#45;&gt;Node3</title>
<path fill="none" stroke="midnightblue" d="M377.04,-280.368C381.236,-262.617 390.915,-221.666 396.604,-197.597"/>
<polygon fill="midnightblue" stroke="midnightblue" points="400.075,-198.128 398.969,-187.591 393.263,-196.518 400.075,-198.128"/>
</g>
<!-- Node2&#45;&gt;Node18 -->
<g id="edge18" class="edge"><title>Node2&#45;&gt;Node18</title>
<path fill="none" stroke="midnightblue" d="M383.587,-280.083C391.159,-272.22 402.378,-260.569 411.514,-251.081"/>
<polygon fill="midnightblue" stroke="midnightblue" points="414.158,-253.382 418.573,-243.751 409.115,-248.527 414.158,-253.382"/>
</g>
<!-- Node4 -->
<g id="node4" class="node"><title>Node4</title>
<polygon fill="white" stroke="#bfbfbf" points="0,-112.5 0,-131.5 48,-131.5 48,-112.5 0,-112.5"/>
<text text-anchor="middle" x="24" y="-119.5" font-family="Helvetica,sans-Serif" font-size="10.00">stdlib.h</text>
</g>
<!-- Node3&#45;&gt;Node4 -->
<g id="edge3" class="edge"><title>Node3&#45;&gt;Node4</title>
<path fill="none" stroke="midnightblue" d="M377.875,-175.072C323.637,-170.317 183.919,-156.726 57.8812,-131.929"/>
<polygon fill="midnightblue" stroke="midnightblue" points="58.5519,-128.494 48.0602,-129.969 57.1813,-135.359 58.5519,-128.494"/>
</g>
<!-- Node5 -->
<g id="node5" class="node"><title>Node5</title>
<polygon fill="white" stroke="#bfbfbf" points="66,-112.5 66,-131.5 112,-131.5 112,-112.5 66,-112.5"/>
<text text-anchor="middle" x="89" y="-119.5" font-family="Helvetica,sans-Serif" font-size="10.00">stdio.h</text>
</g>
<!-- Node3&#45;&gt;Node5 -->
<g id="edge4" class="edge"><title>Node3&#45;&gt;Node5</title>
<path fill="none" stroke="midnightblue" d="M377.966,-174.209C331.438,-168.379 222.788,-153.788 122.345,-132.09"/>
<polygon fill="midnightblue" stroke="midnightblue" points="122.858,-128.619 112.341,-129.899 121.36,-135.457 122.858,-128.619"/>
</g>
<!-- Node6 -->
<g id="node6" class="node"><title>Node6</title>
<polygon fill="white" stroke="#bfbfbf" points="130,-112.5 130,-131.5 186,-131.5 186,-112.5 130,-112.5"/>
<text text-anchor="middle" x="158" y="-119.5" font-family="Helvetica,sans-Serif" font-size="10.00">stdbool.h</text>
</g>
<!-- Node3&#45;&gt;Node6 -->
<g id="edge5" class="edge"><title>Node3&#45;&gt;Node6</title>
<path fill="none" stroke="midnightblue" d="M377.79,-172.116C341.321,-164.402 268.133,-148.761 196.377,-132.278"/>
<polygon fill="midnightblue" stroke="midnightblue" points="196.796,-128.783 186.265,-129.948 195.224,-135.605 196.796,-128.783"/>
</g>
<!-- Node7 -->
<g id="node7" class="node"><title>Node7</title>
<polygon fill="white" stroke="#bfbfbf" points="204.5,-112.5 204.5,-131.5 253.5,-131.5 253.5,-112.5 204.5,-112.5"/>
<text text-anchor="middle" x="229" y="-119.5" font-family="Helvetica,sans-Serif" font-size="10.00">stdint.h</text>
</g>
<!-- Node3&#45;&gt;Node7 -->
<g id="edge6" class="edge"><title>Node3&#45;&gt;Node7</title>
<path fill="none" stroke="midnightblue" d="M377.803,-169.717C348.469,-160.508 297.7,-144.568 263.733,-133.905"/>
<polygon fill="midnightblue" stroke="midnightblue" points="264.363,-130.434 253.774,-130.778 262.266,-137.112 264.363,-130.434"/>
</g>
<!-- Node8 -->
<g id="node8" class="node"><title>Node8</title>
<polygon fill="white" stroke="#bfbfbf" points="271.5,-112.5 271.5,-131.5 320.5,-131.5 320.5,-112.5 271.5,-112.5"/>
<text text-anchor="middle" x="296" y="-119.5" font-family="Helvetica,sans-Serif" font-size="10.00">string.h</text>
</g>
<!-- Node3&#45;&gt;Node8 -->
<g id="edge7" class="edge"><title>Node3&#45;&gt;Node8</title>
<path fill="none" stroke="midnightblue" d="M384.13,-168.324C367.291,-159.664 341.193,-146.242 321.762,-136.249"/>
<polygon fill="midnightblue" stroke="midnightblue" points="323.322,-133.116 312.828,-131.655 320.12,-139.341 323.322,-133.116"/>
</g>
<!-- Node9 -->
<g id="node9" class="node"><title>Node9</title>
<polygon fill="white" stroke="#bfbfbf" points="476.5,-0.5 476.5,-19.5 523.5,-19.5 523.5,-0.5 476.5,-0.5"/>
<text text-anchor="middle" x="500" y="-7.5" font-family="Helvetica,sans-Serif" font-size="10.00">math.h</text>
</g>
<!-- Node3&#45;&gt;Node9 -->
<g id="edge8" class="edge"><title>Node3&#45;&gt;Node9</title>
<path fill="none" stroke="midnightblue" d="M390.897,-168.199C377.874,-155.733 358.023,-132.197 368,-112 389.137,-69.2119 438.058,-39.5545 470.041,-23.9208"/>
<polygon fill="midnightblue" stroke="midnightblue" points="471.821,-26.951 479.373,-19.5202 468.835,-20.6196 471.821,-26.951"/>
</g>
<!-- Node10 -->
<g id="node10" class="node"><title>Node10</title>
<polygon fill="white" stroke="#bfbfbf" points="377,-112.5 377,-131.5 425,-131.5 425,-112.5 377,-112.5"/>
<text text-anchor="middle" x="401" y="-119.5" font-family="Helvetica,sans-Serif" font-size="10.00">limits.h</text>
</g>
<!-- Node3&#45;&gt;Node10 -->
<g id="edge9" class="edge"><title>Node3&#45;&gt;Node10</title>
<path fill="none" stroke="midnightblue" d="M401,-168.083C401,-161.006 401,-150.861 401,-141.986"/>
<polygon fill="midnightblue" stroke="midnightblue" points="404.5,-141.751 401,-131.751 397.5,-141.751 404.5,-141.751"/>
</g>
<!-- Node11 -->
<g id="node11" class="node"><title>Node11</title>
<polygon fill="white" stroke="#bfbfbf" points="443.5,-112.5 443.5,-131.5 504.5,-131.5 504.5,-112.5 443.5,-112.5"/>
<text text-anchor="middle" x="474" y="-119.5" font-family="Helvetica,sans-Serif" font-size="10.00">GL/glew.h</text>
</g>
<!-- Node3&#45;&gt;Node11 -->
<g id="edge10" class="edge"><title>Node3&#45;&gt;Node11</title>
<path fill="none" stroke="midnightblue" d="M412.729,-168.324C423.837,-160.107 440.742,-147.602 453.983,-137.807"/>
<polygon fill="midnightblue" stroke="midnightblue" points="456.1,-140.595 462.058,-131.834 451.937,-134.967 456.1,-140.595"/>
</g>
<!-- Node12 -->
<g id="node12" class="node"><title>Node12</title>
<polygon fill="white" stroke="#bfbfbf" points="523,-112.5 523,-131.5 571,-131.5 571,-112.5 523,-112.5"/>
<text text-anchor="middle" x="547" y="-119.5" font-family="Helvetica,sans-Serif" font-size="10.00">GL/gl.h</text>
</g>
<!-- Node3&#45;&gt;Node12 -->
<g id="edge11" class="edge"><title>Node3&#45;&gt;Node12</title>
<path fill="none" stroke="midnightblue" d="M424.134,-168.444C448.482,-159.438 487.007,-145.189 514.423,-135.049"/>
<polygon fill="midnightblue" stroke="midnightblue" points="515.809,-138.268 523.974,-131.516 513.381,-131.703 515.809,-138.268"/>
</g>
<!-- Node13 -->
<g id="node13" class="node"><title>Node13</title>
<polygon fill="white" stroke="#bfbfbf" points="589.5,-112.5 589.5,-131.5 642.5,-131.5 642.5,-112.5 589.5,-112.5"/>
<text text-anchor="middle" x="616" y="-119.5" font-family="Helvetica,sans-Serif" font-size="10.00">GL/glu.h</text>
</g>
<!-- Node3&#45;&gt;Node13 -->
<g id="edge12" class="edge"><title>Node3&#45;&gt;Node13</title>
<path fill="none" stroke="midnightblue" d="M424.009,-171.221C461.294,-161.856 535.213,-143.291 579.662,-132.127"/>
<polygon fill="midnightblue" stroke="midnightblue" points="580.636,-135.491 589.482,-129.66 578.93,-128.702 580.636,-135.491"/>
</g>
<!-- Node14 -->
<g id="node14" class="node"><title>Node14</title>
<polygon fill="white" stroke="#bfbfbf" points="661,-112.5 661,-131.5 733,-131.5 733,-112.5 661,-112.5"/>
<text text-anchor="middle" x="697" y="-119.5" font-family="Helvetica,sans-Serif" font-size="10.00">SDL2/SDL.h</text>
</g>
<!-- Node3&#45;&gt;Node14 -->
<g id="edge13" class="edge"><title>Node3&#45;&gt;Node14</title>
<path fill="none" stroke="midnightblue" d="M424.114,-172.96C468.25,-165.218 567.566,-147.67 651,-132 651.1,-131.981 651.2,-131.962 651.3,-131.944"/>
<polygon fill="midnightblue" stroke="midnightblue" points="651.681,-135.434 660.851,-130.126 650.373,-128.557 651.681,-135.434"/>
</g>
<!-- Node15 -->
<g id="node15" class="node"><title>Node15</title>
<polygon fill="white" stroke="#bfbfbf" points="751,-112.5 751,-131.5 855,-131.5 855,-112.5 751,-112.5"/>
<text text-anchor="middle" x="803" y="-119.5" font-family="Helvetica,sans-Serif" font-size="10.00">SDL2/SDL_image.h</text>
</g>
<!-- Node3&#45;&gt;Node15 -->
<g id="edge14" class="edge"><title>Node3&#45;&gt;Node15</title>
<path fill="none" stroke="midnightblue" d="M424.171,-174.066C477.835,-167.245 615.044,-149.655 740.592,-132.18"/>
<polygon fill="midnightblue" stroke="midnightblue" points="741.344,-135.609 750.764,-130.761 740.376,-128.676 741.344,-135.609"/>
</g>
<!-- Node16 -->
<g id="node16" class="node"><title>Node16</title>
<g id="a_node16"><a xlink:href="a_matrix_8h.html" target="_top" xlink:title="aMatrix.h">
<polygon fill="white" stroke="black" points="873.5,-112.5 873.5,-131.5 930.5,-131.5 930.5,-112.5 873.5,-112.5"/>
<text text-anchor="middle" x="902" y="-119.5" font-family="Helvetica,sans-Serif" font-size="10.00">aMatrix.h</text>
</a>
</g>
</g>
<!-- Node3&#45;&gt;Node16 -->
<g id="edge15" class="edge"><title>Node3&#45;&gt;Node16</title>
<path fill="none" stroke="midnightblue" d="M424.27,-175.857C491.055,-172.342 689.161,-160.27 863.584,-131.831"/>
<polygon fill="midnightblue" stroke="midnightblue" points="864.155,-135.284 873.45,-130.2 863.014,-128.378 864.155,-135.284"/>
</g>
<!-- Node17 -->
<g id="node17" class="node"><title>Node17</title>
<g id="a_node17"><a xlink:href="_matrix_8h.html" target="_top" xlink:title="Matrix.h">
<polygon fill="white" stroke="black" points="626,-56.5 626,-75.5 678,-75.5 678,-56.5 626,-56.5"/>
<text text-anchor="middle" x="652" y="-63.5" font-family="Helvetica,sans-Serif" font-size="10.00">Matrix.h</text>
</a>
</g>
</g>
<!-- Node16&#45;&gt;Node17 -->
<g id="edge16" class="edge"><title>Node16&#45;&gt;Node17</title>
<path fill="none" stroke="midnightblue" d="M873.383,-114.147C870.219,-113.411 867.043,-112.683 864,-112 802.274,-98.1413 730.18,-83.0755 687.963,-74.3664"/>
<polygon fill="midnightblue" stroke="midnightblue" points="688.653,-70.9351 678.153,-72.346 687.241,-77.7912 688.653,-70.9351"/>
</g>
<!-- Node17&#45;&gt;Node9 -->
<g id="edge17" class="edge"><title>Node17&#45;&gt;Node9</title>
<path fill="none" stroke="midnightblue" d="M627.915,-56.4435C602.455,-47.3986 562.106,-33.064 533.541,-22.9158"/>
<polygon fill="midnightblue" stroke="midnightblue" points="534.567,-19.5661 523.972,-19.5164 532.223,-26.1622 534.567,-19.5661"/>
</g>
<!-- Node18&#45;&gt;Node3 -->
<g id="edge19" class="edge"><title>Node18&#45;&gt;Node3</title>
<path fill="none" stroke="midnightblue" d="M422.707,-224.083C419.148,-216.691 413.978,-205.953 409.576,-196.811"/>
<polygon fill="midnightblue" stroke="midnightblue" points="412.705,-195.243 405.213,-187.751 406.398,-198.279 412.705,-195.243"/>
</g>
</g>
</svg>
