<?xml version="1.0" encoding="UTF-8" standalone="no"?>
<!DOCTYPE svg PUBLIC "-//W3C//DTD SVG 1.1//EN"
 "http://www.w3.org/Graphics/SVG/1.1/DTD/svg11.dtd">
<!-- Generated by graphviz version 2.38.0 (20140413.2041)
 -->
<!-- Title: getVisualPos Pages: 1 -->
<svg width="272pt" height="66pt"
 viewBox="0.00 0.00 272.00 66.00" xmlns="http://www.w3.org/2000/svg" xmlns:xlink="http://www.w3.org/1999/xlink">
<g id="graph0" class="graph" transform="scale(1 1) rotate(0) translate(4 62)">
<title>getVisualPos</title>
<polygon fill="white" stroke="none" points="-4,4 -4,-62 268,-62 268,4 -4,4"/>
<!-- Node1 -->
<g id="node1" class="node"><title>Node1</title>
<polygon fill="#bfbfbf" stroke="black" points="0,-19.5 0,-38.5 74,-38.5 74,-19.5 0,-19.5"/>
<text text-anchor="middle" x="37" y="-26.5" font-family="Helvetica,sans-Serif" font-size="10.00">getVisualPos</text>
</g>
<!-- Node2 -->
<g id="node2" class="node"><title>Node2</title>
<g id="a_node2"><a xlink:href="_draw_8h.html#ae39baa177eafe9cad35d363fc683d77f" target="_top" xlink:title="Draw">
<polygon fill="white" stroke="black" points="130,-38.5 130,-57.5 170,-57.5 170,-38.5 130,-38.5"/>
<text text-anchor="middle" x="150" y="-45.5" font-family="Helvetica,sans-Serif" font-size="10.00">Draw</text>
</a>
</g>
</g>
<!-- Node1&#45;&gt;Node2 -->
<g id="edge1" class="edge"><title>Node1&#45;&gt;Node2</title>
<path fill="none" stroke="midnightblue" d="M84.337,-36.9316C100.325,-39.6683 117.357,-42.5836 129.925,-44.735"/>
<polygon fill="midnightblue" stroke="midnightblue" points="84.4857,-33.4062 74.0385,-35.1688 83.3046,-40.3058 84.4857,-33.4062"/>
</g>
<!-- Node4 -->
<g id="node4" class="node"><title>Node4</title>
<g id="a_node4"><a xlink:href="_player_8c.html#af408561436e08aa5a5048e55e86de0dc" target="_top" xlink:title="ProcessPlayer">
<polygon fill="white" stroke="black" points="110,-0.5 110,-19.5 190,-19.5 190,-0.5 110,-0.5"/>
<text text-anchor="middle" x="150" y="-7.5" font-family="Helvetica,sans-Serif" font-size="10.00">ProcessPlayer</text>
</a>
</g>
</g>
<!-- Node1&#45;&gt;Node4 -->
<g id="edge3" class="edge"><title>Node1&#45;&gt;Node4</title>
<path fill="none" stroke="midnightblue" d="M83.8991,-21.1434C92.4655,-19.6771 101.347,-18.1569 109.692,-16.7284"/>
<polygon fill="midnightblue" stroke="midnightblue" points="83.3046,-17.6942 74.0385,-22.8312 84.4857,-24.5938 83.3046,-17.6942"/>
</g>
<!-- Node3 -->
<g id="node3" class="node"><title>Node3</title>
<g id="a_node3"><a xlink:href="_main_8c.html#a3c04138a5bfe5d72780bb7e82a18e627" target="_top" xlink:title="main">
<polygon fill="white" stroke="black" points="226,-19.5 226,-38.5 264,-38.5 264,-19.5 226,-19.5"/>
<text text-anchor="middle" x="245" y="-26.5" font-family="Helvetica,sans-Serif" font-size="10.00">main</text>
</a>
</g>
</g>
<!-- Node2&#45;&gt;Node3 -->
<g id="edge2" class="edge"><title>Node2&#45;&gt;Node3</title>
<path fill="none" stroke="midnightblue" d="M180.491,-41.9749C195.322,-38.9449 212.831,-35.3679 225.704,-32.7378"/>
<polygon fill="midnightblue" stroke="midnightblue" points="179.367,-38.6323 170.27,-44.0632 180.768,-45.4906 179.367,-38.6323"/>
</g>
<!-- Node4&#45;&gt;Node3 -->
<g id="edge4" class="edge"><title>Node4&#45;&gt;Node3</title>
<path fill="none" stroke="midnightblue" d="M200.063,-20.0236C209.193,-21.889 218.191,-23.7273 225.644,-25.2498"/>
<polygon fill="midnightblue" stroke="midnightblue" points="200.669,-16.5752 190.171,-18.0026 199.268,-23.4336 200.669,-16.5752"/>
</g>
</g>
</svg>
