<?xml version="1.0" encoding="UTF-8" standalone="no"?>
<!DOCTYPE svg PUBLIC "-//W3C//DTD SVG 1.1//EN"
 "http://www.w3.org/Graphics/SVG/1.1/DTD/svg11.dtd">
<!-- Generated by graphviz version 2.38.0 (20140413.2041)
 -->
<!-- Title: aMatrix.h Pages: 1 -->
<svg width="65pt" height="140pt"
 viewBox="0.00 0.00 65.00 140.00" xmlns="http://www.w3.org/2000/svg" xmlns:xlink="http://www.w3.org/1999/xlink">
<g id="graph0" class="graph" transform="scale(1 1) rotate(0) translate(4 136)">
<title>aMatrix.h</title>
<polygon fill="white" stroke="none" points="-4,4 -4,-136 61,-136 61,4 -4,4"/>
<!-- Node1 -->
<g id="node1" class="node"><title>Node1</title>
<polygon fill="#bfbfbf" stroke="black" points="0,-112.5 0,-131.5 57,-131.5 57,-112.5 0,-112.5"/>
<text text-anchor="middle" x="28.5" y="-119.5" font-family="Helvetica,sans-Serif" font-size="10.00">aMatrix.h</text>
</g>
<!-- Node2 -->
<g id="node2" class="node"><title>Node2</title>
<g id="a_node2"><a xlink:href="_matrix_8h.html" target="_top" xlink:title="Matrix.h">
<polygon fill="white" stroke="black" points="2.5,-56.5 2.5,-75.5 54.5,-75.5 54.5,-56.5 2.5,-56.5"/>
<text text-anchor="middle" x="28.5" y="-63.5" font-family="Helvetica,sans-Serif" font-size="10.00">Matrix.h</text>
</a>
</g>
</g>
<!-- Node1&#45;&gt;Node2 -->
<g id="edge1" class="edge"><title>Node1&#45;&gt;Node2</title>
<path fill="none" stroke="midnightblue" d="M28.5,-112.083C28.5,-105.006 28.5,-94.8611 28.5,-85.9865"/>
<polygon fill="midnightblue" stroke="midnightblue" points="32.0001,-85.751 28.5,-75.7511 25.0001,-85.7511 32.0001,-85.751"/>
</g>
<!-- Node3 -->
<g id="node3" class="node"><title>Node3</title>
<polygon fill="white" stroke="#bfbfbf" points="5,-0.5 5,-19.5 52,-19.5 52,-0.5 5,-0.5"/>
<text text-anchor="middle" x="28.5" y="-7.5" font-family="Helvetica,sans-Serif" font-size="10.00">math.h</text>
</g>
<!-- Node2&#45;&gt;Node3 -->
<g id="edge2" class="edge"><title>Node2&#45;&gt;Node3</title>
<path fill="none" stroke="midnightblue" d="M28.5,-56.083C28.5,-49.0059 28.5,-38.8611 28.5,-29.9865"/>
<polygon fill="midnightblue" stroke="midnightblue" points="32.0001,-29.751 28.5,-19.7511 25.0001,-29.7511 32.0001,-29.751"/>
</g>
</g>
</svg>
