<?xml version="1.0" encoding="UTF-8" standalone="no"?>
<!DOCTYPE svg PUBLIC "-//W3C//DTD SVG 1.1//EN"
 "http://www.w3.org/Graphics/SVG/1.1/DTD/svg11.dtd">
<!-- Generated by graphviz version 2.38.0 (20140413.2041)
 -->
<!-- Title: rglTriangle Pages: 1 -->
<svg width="70pt" height="117pt"
 viewBox="0.00 0.00 70.00 117.00" xmlns="http://www.w3.org/2000/svg" xmlns:xlink="http://www.w3.org/1999/xlink">
<g id="graph0" class="graph" transform="scale(1 1) rotate(0) translate(4 113)">
<title>rglTriangle</title>
<polygon fill="white" stroke="none" points="-4,4 -4,-113 66,-113 66,4 -4,4"/>
<!-- Node1 -->
<g id="node1" class="node"><title>Node1</title>
<polygon fill="#bfbfbf" stroke="black" points="-3.55271e-15,-0.5 -3.55271e-15,-19.5 62,-19.5 62,-0.5 -3.55271e-15,-0.5"/>
<text text-anchor="middle" x="31" y="-7.5" font-family="Helvetica,sans-Serif" font-size="10.00">rglTriangle</text>
</g>
<!-- Node2 -->
<g id="node2" class="node"><title>Node2</title>
<g id="a_node2"><a xlink:href="structrgl_point.html" target="_top" xlink:title="rglPoint">
<polygon fill="white" stroke="black" points="6,-89.5 6,-108.5 56,-108.5 56,-89.5 6,-89.5"/>
<text text-anchor="middle" x="31" y="-96.5" font-family="Helvetica,sans-Serif" font-size="10.00">rglPoint</text>
</a>
</g>
</g>
<!-- Node2&#45;&gt;Node1 -->
<g id="edge1" class="edge"><title>Node2&#45;&gt;Node1</title>
<path fill="none" stroke="#9a32cd" stroke-dasharray="5,2" d="M31,-79.1946C31,-60.7379 31,-33.412 31,-19.6249"/>
<polygon fill="#9a32cd" stroke="#9a32cd" points="27.5001,-79.34 31,-89.34 34.5001,-79.3401 27.5001,-79.34"/>
<text text-anchor="middle" x="36" y="-63" font-family="Helvetica,sans-Serif" font-size="10.00"> A</text>
<text text-anchor="middle" x="36" y="-52" font-family="Helvetica,sans-Serif" font-size="10.00">B</text>
<text text-anchor="middle" x="36" y="-41" font-family="Helvetica,sans-Serif" font-size="10.00">C</text>
</g>
</g>
</svg>
